{
    "resource_db": {
        "M001": {
            "resource_type": "machine",
            "job_name": [
                "\u88c1\u677f"
            ],
            "job_list": [],
            "working_type": "Discrete",
            "working_capacity": 1,
            "working_flow_gap": -1,
            "working_flow_time": -1
        },
        "M002": {
            "resource_type": "machine",
            "job_name": [
                "\u66dd\u5149"
            ],
            "job_list": [],
            "working_type": "Discrete",
            "working_capacity": 1,
            "working_flow_gap": -1,
            "working_flow_time": -1
        },
        "M003": {
            "resource_type": "machine",
            "job_name": [
                "\u986f\u5f71"
            ],
            "job_list": [],
            "working_type": "Discrete",
            "working_capacity": 1,
            "working_flow_gap": -1,
            "working_flow_time": -1
        },
        "M004": {
            "resource_type": "machine",
            "job_name": [
                "\u4e00\u9285"
            ],
            "job_list": [],
            "working_type": "Parallel",
            "working_capacity": 20,
            "working_flow_gap": -1,
            "working_flow_time": -1
        },
        "M005": {
            "resource_type": "machine",
            "job_name": [
                "\u6a5f\u947d"
            ],
            "job_list": [],
            "working_type": "Discrete",
            "working_capacity": 1,
            "working_flow_gap": -1,
            "working_flow_time": -1
        },
        "M006": {
            "resource_type": "machine",
            "job_name": [
                "\u70d8\u70e4"
            ],
            "job_list": [],
            "working_type": "Parallel",
            "working_capacity": 20,
            "working_flow_gap": -1,
            "working_flow_time": -1
        },
        "M007": {
            "resource_type": "machine",
            "job_name": [
                "\u5167\u5c64\u524d\u8655\u7406"
            ],
            "job_list": [],
            "working_type": "Line",
            "working_capacity": -1,
            "working_flow_gap": 10,
            "working_flow_time": 60
        },
        "M008": {
            "resource_type": "machine",
            "job_name": [
                "\u58d3\u819c"
            ],
            "job_list": [],
            "working_type": "Discrete",
            "working_capacity": 1,
            "working_flow_gap": -1,
            "working_flow_time": -1
        },
        "M009": {
            "resource_type": "machine",
            "job_name": [
                "\u71b1\u58d3"
            ],
            "job_list": [],
            "working_type": "Parallel",
            "working_capacity": 20,
            "working_flow_gap": -1,
            "working_flow_time": -1
        },
        "M010": {
            "resource_type": "machine",
            "job_name": [
                "\u71b1\u58d3"
            ],
            "job_list": [],
            "working_type": "Parallel",
            "working_capacity": 20,
            "working_flow_gap": -1,
            "working_flow_time": -1
        },
        "M011": {
            "resource_type": "machine",
            "job_name": [
                "\u6210\u578b"
            ],
            "job_list": [],
            "working_type": "Discrete",
            "working_capacity": 1,
            "working_flow_gap": -1,
            "working_flow_time": -1
        },
        "M012": {
            "resource_type": "machine",
            "job_name": [
                "AOI"
            ],
            "job_list": [],
            "working_type": "Discrete",
            "working_capacity": 1,
            "working_flow_gap": -1,
            "working_flow_time": -1
        },
        "M013": {
            "resource_type": "machine",
            "job_name": [
                "\u9632\u710a\u5370\u5237"
            ],
            "job_list": [],
            "working_type": "Discrete",
            "working_capacity": 1,
            "working_flow_gap": -1,
            "working_flow_time": -1
        },
        "H001": {
            "resource_type": "operator",
            "job_name": [
                "\u524d\u7f6e",
                "\u88c1\u677f"
            ],
            "job_list": [],
            "working_type": "Discrete",
            "working_capacity": 1,
            "working_flow_gap": -1,
            "working_flow_time": -1
        },
        "H002": {
            "resource_type": "operator",
            "job_name": [
                "\u76ee\u6aa2\u4f5c\u696d"
            ],
            "job_list": [],
            "working_type": "Discrete",
            "working_capacity": 1,
            "working_flow_gap": -1,
            "working_flow_time": -1
        },
        "H003": {
            "resource_type": "operator",
            "job_name": [
                "\u5167\u5c64\u524d\u8655\u7406"
            ],
            "job_list": [],
            "working_type": "Discrete",
            "working_capacity": 1,
            "working_flow_gap": -1,
            "working_flow_time": -1
        },
        "H004": {
            "resource_type": "operator",
            "job_name": [
                "\u76ee\u6aa2\u4f5c\u696d",
                "\u5167\u5c64\u524d\u8655\u7406"
            ],
            "job_list": [],
            "working_type": "Discrete",
            "working_capacity": 1,
            "working_flow_gap": -1,
            "working_flow_time": -1
        },
        "H005": {
            "resource_type": "operator",
            "job_name": [
                "\u66dd\u5149"
            ],
            "job_list": [],
            "working_type": "Discrete",
            "working_capacity": 1,
            "working_flow_gap": -1,
            "working_flow_time": -1
        }
    },
    "project_db": {
        "MO1910663": {
            "order_date": "2020-10-03 00:00:00",
            "due": "2020-10-11 00:00:00",
            "project_type": "\u4e00\u822c\u4ef6",
            "product_name": "PA0000001",
            "jobID_list": {
                "1": [
                    "JID0",
                    "JID1",
                    "JID2",
                    "JID3",
                    "JID4",
                    "JID5",
                    "JID6",
                    "JID7",
                    "JID8",
                    "JID9",
                    "JID10",
                    "JID11",
                    "JID12",
                    "JID13"
                ]
            }
        },
        "MO1840001": {
            "order_date": "2020-10-03 00:00:00",
            "due": "2020-10-13 00:00:00",
            "project_type": "\u4e00\u822c\u4ef6",
            "product_name": "PA0000002",
            "jobID_list": {
                "1": [
                    "JID14",
                    "JID15",
                    "JID16",
                    "JID17",
                    "JID18",
                    "JID19",
                    "JID20",
                    "JID21",
                    "JID22",
                    "JID23",
                    "JID24",
                    "JID25",
                    "JID26",
                    "JID27",
                    "JID28",
                    "JID29",
                    "JID30",
                    "JID31"
                ]
            }
        }
    },
    "process_db": {
        "PROC0": {
            "process_name": "\u88c1\u677f",
            "product_sequence": "10",
            "project_name": "MO1910663",
            "product_name": "PA0000001",
            "rule_category": "",
            "rule_paramter": "",
            "out_sourcing": false
        },
        "PROC1": {
            "process_name": "\u5167\u5c64",
            "product_sequence": "20",
            "project_name": "MO1910663",
            "product_name": "PA0000001",
            "rule_category": "",
            "rule_paramter": "",
            "out_sourcing": false
        },
        "PROC2": {
            "process_name": "\u5167\u5c64",
            "product_sequence": "20",
            "project_name": "MO1910663",
            "product_name": "PA0000001",
            "rule_category": "",
            "rule_paramter": "",
            "out_sourcing": false
        },
        "PROC3": {
            "process_name": "\u5167\u5c64",
            "product_sequence": "20",
            "project_name": "MO1910663",
            "product_name": "PA0000001",
            "rule_category": "",
            "rule_paramter": "",
            "out_sourcing": false
        },
        "PROC4": {
            "process_name": "\u5167\u5c64",
            "product_sequence": "20",
            "project_name": "MO1910663",
            "product_name": "PA0000001",
            "rule_category": "",
            "rule_paramter": "",
            "out_sourcing": false
        },
        "PROC5": {
            "process_name": "\u58d3\u5408",
            "product_sequence": "30",
            "project_name": "MO1910663",
            "product_name": "PA0000001",
            "rule_category": "",
            "rule_paramter": "",
            "out_sourcing": false
        },
        "PROC6": {
            "process_name": "\u4e00\u9285",
            "product_sequence": "40",
            "project_name": "MO1910663",
            "product_name": "PA0000001",
            "rule_category": "",
            "rule_paramter": "",
            "out_sourcing": false
        },
        "PROC7": {
            "process_name": "\u947d\u5b54",
            "product_sequence": "50",
            "project_name": "MO1910663",
            "product_name": "PA0000001",
            "rule_category": "",
            "rule_paramter": "",
            "out_sourcing": false
        },
        "PROC8": {
            "process_name": "\u947d\u5b54",
            "product_sequence": "50",
            "project_name": "MO1910663",
            "product_name": "PA0000001",
            "rule_category": "",
            "rule_paramter": "",
            "out_sourcing": false
        },
        "PROC9": {
            "process_name": "\u534a\u6210\u54c1\u6e2c\u8a66",
            "product_sequence": "60",
            "project_name": "MO1910663",
            "product_name": "PA0000001",
            "rule_category": "",
            "rule_paramter": "",
            "out_sourcing": false
        },
        "PROC10": {
            "process_name": "\u9632\u710a",
            "product_sequence": "70",
            "project_name": "MO1910663",
            "product_name": "PA0000001",
            "rule_category": "",
            "rule_paramter": "",
            "out_sourcing": false
        },
        "PROC11": {
            "process_name": "\u9632\u710a",
            "product_sequence": "70",
            "project_name": "MO1910663",
            "product_name": "PA0000001",
            "rule_category": "",
            "rule_paramter": "",
            "out_sourcing": false
        },
        "PROC12": {
            "process_name": "\u6210\u578b",
            "product_sequence": "80",
            "project_name": "MO1910663",
            "product_name": "PA0000001",
            "rule_category": "",
            "rule_paramter": "",
            "out_sourcing": false
        },
        "PROC13": {
            "process_name": "\u6210\u6aa2",
            "product_sequence": "90",
            "project_name": "MO1910663",
            "product_name": "PA0000001",
            "rule_category": "",
            "rule_paramter": "",
            "out_sourcing": false
        },
        "PROC14": {
            "process_name": "\u88c1\u677f",
            "product_sequence": "20",
            "project_name": "MO1840001",
            "product_name": "PA0000002",
            "rule_category": "",
            "rule_paramter": "",
            "out_sourcing": false
        },
        "PROC15": {
            "process_name": "\u88c1\u677f",
            "product_sequence": "20",
            "project_name": "MO1840001",
            "product_name": "PA0000002",
            "rule_category": "",
            "rule_paramter": "",
            "out_sourcing": false
        },
        "PROC16": {
            "process_name": "\u88c1\u677f",
            "product_sequence": "20",
            "project_name": "MO1840001",
            "product_name": "PA0000002",
            "rule_category": "",
            "rule_paramter": "",
            "out_sourcing": false
        },
        "PROC17": {
            "process_name": "\u5167\u5c64",
            "product_sequence": "30",
            "project_name": "MO1840001",
            "product_name": "PA0000002",
            "rule_category": "",
            "rule_paramter": "",
            "out_sourcing": false
        },
        "PROC18": {
            "process_name": "\u5167\u5c64",
            "product_sequence": "30",
            "project_name": "MO1840001",
            "product_name": "PA0000002",
            "rule_category": "",
            "rule_paramter": "",
            "out_sourcing": false
        },
        "PROC19": {
            "process_name": "\u5167\u5c64",
            "product_sequence": "30",
            "project_name": "MO1840001",
            "product_name": "PA0000002",
            "rule_category": "",
            "rule_paramter": "",
            "out_sourcing": false
        },
        "PROC20": {
            "process_name": "\u5167\u5c64",
            "product_sequence": "30",
            "project_name": "MO1840001",
            "product_name": "PA0000002",
            "rule_category": "",
            "rule_paramter": "",
            "out_sourcing": false
        },
        "PROC21": {
            "process_name": "\u5167\u5c64",
            "product_sequence": "30",
            "project_name": "MO1840001",
            "product_name": "PA0000002",
            "rule_category": "",
            "rule_paramter": "",
            "out_sourcing": false
        },
        "PROC22": {
            "process_name": "\u5167\u5c64",
            "product_sequence": "30",
            "project_name": "MO1840001",
            "product_name": "PA0000002",
            "rule_category": "",
            "rule_paramter": "",
            "out_sourcing": false
        },
        "PROC23": {
            "process_name": "\u5167\u5c64",
            "product_sequence": "30",
            "project_name": "MO1840001",
            "product_name": "PA0000002",
            "rule_category": "",
            "rule_paramter": "",
            "out_sourcing": false
        },
        "PROC24": {
            "process_name": "\u5167\u5c64",
            "product_sequence": "30",
            "project_name": "MO1840001",
            "product_name": "PA0000002",
            "rule_category": "",
            "rule_paramter": "",
            "out_sourcing": false
        },
        "PROC25": {
            "process_name": "\u5167\u5c64\u6e2c\u8a66",
            "product_sequence": "50",
            "project_name": "MO1840001",
            "product_name": "PA0000002",
            "rule_category": "",
            "rule_paramter": "",
            "out_sourcing": false
        },
        "PROC26": {
            "process_name": "\u5167\u5c64\u6e2c\u8a66",
            "product_sequence": "50",
            "project_name": "MO1840001",
            "product_name": "PA0000002",
            "rule_category": "",
            "rule_paramter": "",
            "out_sourcing": false
        },
        "PROC27": {
            "process_name": "\u5167\u5c64\u6e2c\u8a66",
            "product_sequence": "50",
            "project_name": "MO1840001",
            "product_name": "PA0000002",
            "rule_category": "",
            "rule_paramter": "",
            "out_sourcing": false
        },
        "PROC28": {
            "process_name": "\u58d3\u5408",
            "product_sequence": "60",
            "project_name": "MO1840001",
            "product_name": "PA0000002",
            "rule_category": "",
            "rule_paramter": "",
            "out_sourcing": false
        },
        "PROC29": {
            "process_name": "\u58d3\u5408",
            "product_sequence": "60",
            "project_name": "MO1840001",
            "product_name": "PA0000002",
            "rule_category": "",
            "rule_paramter": "",
            "out_sourcing": false
        },
        "PROC30": {
            "process_name": "\u58d3\u5408",
            "product_sequence": "60",
            "project_name": "MO1840001",
            "product_name": "PA0000002",
            "rule_category": "",
            "rule_paramter": "",
            "out_sourcing": false
        },
        "PROC31": {
            "process_name": "\u58d3\u5408",
            "product_sequence": "60",
            "project_name": "MO1840001",
            "product_name": "PA0000002",
            "rule_category": "",
            "rule_paramter": "",
            "out_sourcing": false
        }
    },
    "job_db": {
        "JID0": {
            "job_name": "\u88c1\u677f",
            "job_sequence": "1",
            "est_time": 15.0,
            "process_name": "\u88c1\u677f",
            "project_name": "MO1910663",
            "product_name": "PA0000001",
            "product_lot": "1",
            "product_lot_size": 20.0,
            "resource": "unassign",
            "multi_resource": false,
            "qty": 200,
            "real_start_time": "",
            "real_end_time": "",
            "plan_start_time": "",
            "plan_end_time": "",
            "pre_product": "",
            "rule": "",
            "material": "",
            "mother": ""
        },
        "JID1": {
            "job_name": "\u5167\u5c64\u524d\u8655\u7406",
            "job_sequence": "2",
            "est_time": 10.0,
            "process_name": "\u5167\u5c64",
            "project_name": "MO1910663",
            "product_name": "PA0000001",
            "product_lot": "1",
            "product_lot_size": 20.0,
            "resource": "unassign",
            "multi_resource": true,
            "qty": 400,
            "real_start_time": "",
            "real_end_time": "",
            "plan_start_time": "",
            "plan_end_time": "",
            "pre_product": "",
            "rule": "",
            "material": "",
            "mother": ""
        },
        "JID2": {
            "job_name": "\u58d3\u819c",
            "job_sequence": "3",
            "est_time": 10.0,
            "process_name": "\u5167\u5c64",
            "project_name": "MO1910663",
            "product_name": "PA0000001",
            "product_lot": "1",
            "product_lot_size": 20.0,
            "resource": "unassign",
            "multi_resource": false,
            "qty": 800,
            "real_start_time": "",
            "real_end_time": "",
            "plan_start_time": "",
            "plan_end_time": "",
            "pre_product": "",
            "rule": "",
            "material": "",
            "mother": ""
        },
        "JID3": {
            "job_name": "\u66dd\u5149",
            "job_sequence": "4",
            "est_time": 25.0,
            "process_name": "\u5167\u5c64",
            "project_name": "MO1910663",
            "product_name": "PA0000001",
            "product_lot": "1",
            "product_lot_size": 20.0,
            "resource": "unassign",
            "multi_resource": false,
            "qty": 200,
            "real_start_time": "",
            "real_end_time": "",
            "plan_start_time": "",
            "plan_end_time": "",
            "pre_product": "",
            "rule": "",
            "material": "",
            "mother": ""
        },
        "JID4": {
            "job_name": "\u986f\u5f71",
            "job_sequence": "5",
            "est_time": 40.0,
            "process_name": "\u5167\u5c64",
            "project_name": "MO1910663",
            "product_name": "PA0000001",
            "product_lot": "1",
            "product_lot_size": 20.0,
            "resource": "unassign",
            "multi_resource": false,
            "qty": 100,
            "real_start_time": "",
            "real_end_time": "",
            "plan_start_time": "",
            "plan_end_time": "",
            "pre_product": "",
            "rule": "",
            "material": "",
            "mother": ""
        },
        "JID5": {
            "job_name": "\u71b1\u58d3",
            "job_sequence": "6",
            "est_time": 300.0,
            "process_name": "\u58d3\u5408",
            "project_name": "MO1910663",
            "product_name": "PA0000001",
            "product_lot": "1",
            "product_lot_size": 20.0,
            "resource": "unassign",
            "multi_resource": false,
            "qty": 50,
            "real_start_time": "",
            "real_end_time": "",
            "plan_start_time": "",
            "plan_end_time": "",
            "pre_product": "",
            "rule": "",
            "material": "",
            "mother": ""
        },
        "JID6": {
            "job_name": "\u4e00\u9285",
            "job_sequence": "7",
            "est_time": 120.0,
            "process_name": "\u4e00\u9285",
            "project_name": "MO1910663",
            "product_name": "PA0000001",
            "product_lot": "1",
            "product_lot_size": 20.0,
            "resource": "unassign",
            "multi_resource": false,
            "qty": 400,
            "real_start_time": "",
            "real_end_time": "",
            "plan_start_time": "",
            "plan_end_time": "",
            "pre_product": "",
            "rule": "",
            "material": "",
            "mother": ""
        },
        "JID7": {
            "job_name": "\u524d\u7f6e",
            "job_sequence": "8",
            "est_time": 20.0,
            "process_name": "\u947d\u5b54",
            "project_name": "MO1910663",
            "product_name": "PA0000001",
            "product_lot": "1",
            "product_lot_size": 20.0,
            "resource": "unassign",
            "multi_resource": false,
            "qty": 200,
            "real_start_time": "",
            "real_end_time": "",
            "plan_start_time": "",
            "plan_end_time": "",
            "pre_product": "",
            "rule": "",
            "material": "",
            "mother": ""
        },
        "JID8": {
            "job_name": "\u6a5f\u947d",
            "job_sequence": "9",
            "est_time": 90.0,
            "process_name": "\u947d\u5b54",
            "project_name": "MO1910663",
            "product_name": "PA0000001",
            "product_lot": "1",
            "product_lot_size": 20.0,
            "resource": "unassign",
            "multi_resource": false,
            "qty": 200,
            "real_start_time": "",
            "real_end_time": "",
            "plan_start_time": "",
            "plan_end_time": "",
            "pre_product": "",
            "rule": "",
            "material": "",
            "mother": ""
        },
        "JID9": {
            "job_name": "AOI",
            "job_sequence": "10",
            "est_time": 20.0,
            "process_name": "\u534a\u6210\u54c1\u6e2c\u8a66",
            "project_name": "MO1910663",
            "product_name": "PA0000001",
            "product_lot": "1",
            "product_lot_size": 20.0,
            "resource": "unassign",
            "multi_resource": false,
            "qty": 200,
            "real_start_time": "",
            "real_end_time": "",
            "plan_start_time": "",
            "plan_end_time": "",
            "pre_product": "",
            "rule": "",
            "material": "",
            "mother": ""
        },
        "JID10": {
            "job_name": "\u9632\u710a\u5370\u5237",
            "job_sequence": "11",
            "est_time": 150.0,
            "process_name": "\u9632\u710a",
            "project_name": "MO1910663",
            "product_name": "PA0000001",
            "product_lot": "1",
            "product_lot_size": 20.0,
            "resource": "unassign",
            "multi_resource": false,
            "qty": 200,
            "real_start_time": "",
            "real_end_time": "",
            "plan_start_time": "",
            "plan_end_time": "",
            "pre_product": "",
            "rule": "",
            "material": "",
            "mother": ""
        },
        "JID11": {
            "job_name": "\u70d8\u70e4",
            "job_sequence": "12",
            "est_time": 210.0,
            "process_name": "\u9632\u710a",
            "project_name": "MO1910663",
            "product_name": "PA0000001",
            "product_lot": "1",
            "product_lot_size": 20.0,
            "resource": "unassign",
            "multi_resource": false,
            "qty": 200,
            "real_start_time": "",
            "real_end_time": "",
            "plan_start_time": "",
            "plan_end_time": "",
            "pre_product": "",
            "rule": "",
            "material": "",
            "mother": ""
        },
        "JID12": {
            "job_name": "\u6210\u578b",
            "job_sequence": "13",
            "est_time": 60.0,
            "process_name": "\u6210\u578b",
            "project_name": "MO1910663",
            "product_name": "PA0000001",
            "product_lot": "1",
            "product_lot_size": 100.0,
            "resource": "unassign",
            "multi_resource": false,
            "qty": 200,
            "real_start_time": "",
            "real_end_time": "",
            "plan_start_time": "",
            "plan_end_time": "",
            "pre_product": "",
            "rule": "",
            "material": "",
            "mother": ""
        },
        "JID13": {
            "job_name": "\u76ee\u6aa2\u4f5c\u696d",
            "job_sequence": "14",
            "est_time": 135.0,
            "process_name": "\u6210\u6aa2",
            "project_name": "MO1910663",
            "product_name": "PA0000001",
            "product_lot": "1",
            "product_lot_size": 100.0,
            "resource": "unassign",
            "multi_resource": false,
            "qty": 200,
            "real_start_time": "",
            "real_end_time": "",
            "plan_start_time": "",
            "plan_end_time": "",
            "pre_product": "",
            "rule": "",
            "material": "",
            "mother": ""
        },
        "JID14": {
            "job_name": "\u88c1\u677f",
            "job_sequence": "1",
            "est_time": 10.0,
            "process_name": "\u88c1\u677f",
            "project_name": "MO1840001",
            "product_name": "PA0000002",
            "product_lot": "1",
            "product_lot_size": 10.0,
            "resource": "unassign",
            "multi_resource": false,
            "qty": 100,
            "real_start_time": "",
            "real_end_time": "",
            "plan_start_time": "",
            "plan_end_time": "",
            "pre_product": "",
            "rule": "",
            "material": "",
            "mother": ""
        },
        "JID15": {
            "job_name": "\u88c1\u677f",
            "job_sequence": "2",
            "est_time": 10.0,
            "process_name": "\u88c1\u677f",
            "project_name": "MO1840001",
            "product_name": "PA0000002",
            "product_lot": "1",
            "product_lot_size": 10.0,
            "resource": "unassign",
            "multi_resource": false,
            "qty": 50,
            "real_start_time": "",
            "real_end_time": "",
            "plan_start_time": "",
            "plan_end_time": "",
            "pre_product": "",
            "rule": "",
            "material": "",
            "mother": ""
        },
        "JID16": {
            "job_name": "\u70d8\u70e4",
            "job_sequence": "3",
            "est_time": 25.0,
            "process_name": "\u88c1\u677f",
            "project_name": "MO1840001",
            "product_name": "PA0000002",
            "product_lot": "1",
            "product_lot_size": 10.0,
            "resource": "unassign",
            "multi_resource": false,
            "qty": 100,
            "real_start_time": "",
            "real_end_time": "",
            "plan_start_time": "",
            "plan_end_time": "",
            "pre_product": "",
            "rule": "",
            "material": "",
            "mother": ""
        },
        "JID17": {
            "job_name": "\u58d3\u819c",
            "job_sequence": "4",
            "est_time": 40.0,
            "process_name": "\u5167\u5c64",
            "project_name": "MO1840001",
            "product_name": "PA0000002",
            "product_lot": "1",
            "product_lot_size": 100.0,
            "resource": "unassign",
            "multi_resource": false,
            "qty": 1000,
            "real_start_time": "",
            "real_end_time": "",
            "plan_start_time": "",
            "plan_end_time": "",
            "pre_product": "",
            "rule": "",
            "material": "",
            "mother": ""
        },
        "JID18": {
            "job_name": "\u58d3\u819c",
            "job_sequence": "5",
            "est_time": 40.0,
            "process_name": "\u5167\u5c64",
            "project_name": "MO1840001",
            "product_name": "PA0000002",
            "product_lot": "1",
            "product_lot_size": 100.0,
            "resource": "unassign",
            "multi_resource": false,
            "qty": 500,
            "real_start_time": "",
            "real_end_time": "",
            "plan_start_time": "",
            "plan_end_time": "",
            "pre_product": "",
            "rule": "",
            "material": "",
            "mother": ""
        },
        "JID19": {
            "job_name": "\u58d3\u819c",
            "job_sequence": "6",
            "est_time": 40.0,
            "process_name": "\u5167\u5c64",
            "project_name": "MO1840001",
            "product_name": "PA0000002",
            "product_lot": "1",
            "product_lot_size": 100.0,
            "resource": "unassign",
            "multi_resource": false,
            "qty": 200,
            "real_start_time": "",
            "real_end_time": "",
            "plan_start_time": "",
            "plan_end_time": "",
            "pre_product": "",
            "rule": "",
            "material": "",
            "mother": ""
        },
        "JID20": {
            "job_name": "\u66dd\u5149",
            "job_sequence": "7",
            "est_time": 20.0,
            "process_name": "\u5167\u5c64",
            "project_name": "MO1840001",
            "product_name": "PA0000002",
            "product_lot": "1",
            "product_lot_size": 100.0,
            "resource": "unassign",
            "multi_resource": false,
            "qty": 200,
            "real_start_time": "",
            "real_end_time": "",
            "plan_start_time": "",
            "plan_end_time": "",
            "pre_product": "",
            "rule": "",
            "material": "",
            "mother": ""
        },
        "JID21": {
            "job_name": "\u66dd\u5149",
            "job_sequence": "8",
            "est_time": 20.0,
            "process_name": "\u5167\u5c64",
            "project_name": "MO1840001",
            "product_name": "PA0000002",
            "product_lot": "1",
            "product_lot_size": 100.0,
            "resource": "unassign",
            "multi_resource": false,
            "qty": 200,
            "real_start_time": "",
            "real_end_time": "",
            "plan_start_time": "",
            "plan_end_time": "",
            "pre_product": "",
            "rule": "",
            "material": "",
            "mother": ""
        },
        "JID22": {
            "job_name": "\u66dd\u5149",
            "job_sequence": "9",
            "est_time": 20.0,
            "process_name": "\u5167\u5c64",
            "project_name": "MO1840001",
            "product_name": "PA0000002",
            "product_lot": "1",
            "product_lot_size": 100.0,
            "resource": "unassign",
            "multi_resource": false,
            "qty": 200,
            "real_start_time": "",
            "real_end_time": "",
            "plan_start_time": "",
            "plan_end_time": "",
            "pre_product": "",
            "rule": "",
            "material": "",
            "mother": ""
        },
        "JID23": {
            "job_name": "\u66dd\u5149",
            "job_sequence": "10",
            "est_time": 20.0,
            "process_name": "\u5167\u5c64",
            "project_name": "MO1840001",
            "product_name": "PA0000002",
            "product_lot": "1",
            "product_lot_size": 100.0,
            "resource": "unassign",
            "multi_resource": false,
            "qty": 200,
            "real_start_time": "",
            "real_end_time": "",
            "plan_start_time": "",
            "plan_end_time": "",
            "pre_product": "",
            "rule": "",
            "material": "",
            "mother": ""
        },
        "JID24": {
            "job_name": "\u986f\u5f71",
            "job_sequence": "11",
            "est_time": 210.0,
            "process_name": "\u5167\u5c64",
            "project_name": "MO1840001",
            "product_name": "PA0000002",
            "product_lot": "1",
            "product_lot_size": 100.0,
            "resource": "unassign",
            "multi_resource": false,
            "qty": 200,
            "real_start_time": "",
            "real_end_time": "",
            "plan_start_time": "",
            "plan_end_time": "",
            "pre_product": "",
            "rule": "",
            "material": "",
            "mother": ""
        },
        "JID25": {
            "job_name": "AOI",
            "job_sequence": "12",
            "est_time": 20.0,
            "process_name": "\u5167\u5c64\u6e2c\u8a66",
            "project_name": "MO1840001",
            "product_name": "PA0000002",
            "product_lot": "1",
            "product_lot_size": 700.0,
            "resource": "unassign",
            "multi_resource": false,
            "qty": 100,
            "real_start_time": "",
            "real_end_time": "",
            "plan_start_time": "",
            "plan_end_time": "",
            "pre_product": "",
            "rule": "",
            "material": "",
            "mother": ""
        },
        "JID26": {
            "job_name": "AOI",
            "job_sequence": "13",
            "est_time": 20.0,
            "process_name": "\u5167\u5c64\u6e2c\u8a66",
            "project_name": "MO1840001",
            "product_name": "PA0000002",
            "product_lot": "1",
            "product_lot_size": 700.0,
            "resource": "unassign",
            "multi_resource": false,
            "qty": 100,
            "real_start_time": "",
            "real_end_time": "",
            "plan_start_time": "",
            "plan_end_time": "",
            "pre_product": "",
            "rule": "",
            "material": "",
            "mother": ""
        },
        "JID27": {
            "job_name": "AOI",
            "job_sequence": "14",
            "est_time": 20.0,
            "process_name": "\u5167\u5c64\u6e2c\u8a66",
            "project_name": "MO1840001",
            "product_name": "PA0000002",
            "product_lot": "1",
            "product_lot_size": 700.0,
            "resource": "unassign",
            "multi_resource": false,
            "qty": 100,
            "real_start_time": "",
            "real_end_time": "",
            "plan_start_time": "",
            "plan_end_time": "",
            "pre_product": "",
            "rule": "",
            "material": "",
            "mother": ""
        },
        "JID28": {
            "job_name": "\u88c1\u677f",
            "job_sequence": "15",
            "est_time": 10.0,
            "process_name": "\u58d3\u5408",
            "project_name": "MO1840001",
            "product_name": "PA0000002",
            "product_lot": "1",
            "product_lot_size": 410.0,
            "resource": "unassign",
            "multi_resource": false,
            "qty": 100,
            "real_start_time": "",
            "real_end_time": "",
            "plan_start_time": "",
            "plan_end_time": "",
            "pre_product": "",
            "rule": "",
            "material": "",
            "mother": ""
        },
        "JID29": {
            "job_name": "\u71b1\u58d3",
            "job_sequence": "16",
            "est_time": 300.0,
            "process_name": "\u58d3\u5408",
            "project_name": "MO1840001",
            "product_name": "PA0000002",
            "product_lot": "1",
            "product_lot_size": 410.0,
            "resource": "unassign",
            "multi_resource": false,
            "qty": 100,
            "real_start_time": "",
            "real_end_time": "",
            "plan_start_time": "",
            "plan_end_time": "",
            "pre_product": "",
            "rule": "",
            "material": "",
            "mother": ""
        },
        "JID30": {
            "job_name": "\u71b1\u58d3",
            "job_sequence": "17",
            "est_time": 300.0,
            "process_name": "\u58d3\u5408",
            "project_name": "MO1840001",
            "product_name": "PA0000002",
            "product_lot": "1",
            "product_lot_size": 410.0,
            "resource": "unassign",
            "multi_resource": false,
            "qty": 100,
            "real_start_time": "",
            "real_end_time": "",
            "plan_start_time": "",
            "plan_end_time": "",
            "pre_product": "",
            "rule": "",
            "material": "",
            "mother": ""
        },
        "JID31": {
            "job_name": "\u71b1\u58d3",
            "job_sequence": "18",
            "est_time": 300.0,
            "process_name": "\u58d3\u5408",
            "project_name": "MO1840001",
            "product_name": "PA0000002",
            "product_lot": "1",
            "product_lot_size": 410.0,
            "resource": "unassign",
            "multi_resource": false,
            "qty": 100,
            "real_start_time": "",
            "real_end_time": "",
            "plan_start_time": "",
            "plan_end_time": "",
            "pre_product": "",
            "rule": "",
            "material": "",
            "mother": ""
        }
    },
    "sequence_rule": [
        "FIFO",
        "EDD"
    ],
    "dispatching_rule": [
        "Max Planned Load"
    ]
}