{
    "success": true,
    "tasks": {
        "rows": [
            {
                "id": 10000,
                "name": "trial_v0.json",
                "percentDone": 0,
                "startDate": "",
                "endDate": "",
                "expanded": true,
                "children": [
                    {
                        "id": 100000,
                        "name": "MO1910663",
                        "percentDone": 0,
                        "startDate": "2020-12-08T05:19:06",
                        "endDate": "2020-12-09T03:04:06",
                        "expanded": true,
                        "rollup": true,
                        "children": [
                            {
                                "id": 1001000,
                                "name": "PA00000011",
                                "percentDone": 0,
                                "startDate": "2020-12-08T05:19:06",
                                "endDate": "2020-12-08T06:59:06",
                                "expanded": true,
                                "rollup": true,
                                "children": [
                                    {
                                        "id": 10000000,
                                        "name": "\u88c1\u677f",
                                        "startDate": "2020-12-08T05:19:06",
                                        "endDate": "2020-12-08T05:34:06",
                                        "resource": "RCID0",
                                        "rollup": true,
                                        "color": "teal"
                                    },
                                    {
                                        "id": 10000003,
                                        "name": "\u66dd\u5149",
                                        "startDate": "2020-12-08T06:09:06",
                                        "endDate": "2020-12-08T06:34:06",
                                        "resource": "RCID1",
                                        "rollup": true,
                                        "color": "teal"
                                    },
                                    {
                                        "id": 10000001,
                                        "name": "\u5167\u5c64\u524d\u8655\u7406",
                                        "startDate": "2020-12-08T05:44:06",
                                        "endDate": "2020-12-08T05:54:06",
                                        "resource": "RCID16",
                                        "rollup": true,
                                        "color": "teal"
                                    },
                                    {
                                        "id": 10000004,
                                        "name": "\u986f\u5f71",
                                        "startDate": "2020-12-08T06:19:06",
                                        "endDate": "2020-12-08T06:59:06",
                                        "resource": "RCID2",
                                        "rollup": true,
                                        "color": "teal"
                                    },
                                    {
                                        "id": 10000002,
                                        "name": "\u58d3\u819c",
                                        "startDate": "2020-12-08T05:59:06",
                                        "endDate": "2020-12-08T06:09:06",
                                        "resource": "RCID7",
                                        "rollup": true,
                                        "color": "teal"
                                    }
                                ],
                                "color": "teal"
                            },
                            {
                                "id": 1001001,
                                "name": "PA00000011",
                                "percentDone": 0,
                                "startDate": "2020-12-08T06:44:06",
                                "endDate": "2020-12-09T00:49:06",
                                "expanded": true,
                                "rollup": true,
                                "children": [
                                    {
                                        "id": 10013001,
                                        "name": "\u6210\u578b",
                                        "startDate": "2020-12-08T19:04:06",
                                        "endDate": "2020-12-08T20:04:06",
                                        "resource": "RCID10",
                                        "rollup": true,
                                        "color": "teal"
                                    },
                                    {
                                        "id": 10010001,
                                        "name": "AOI",
                                        "startDate": "2020-12-08T14:44:06",
                                        "endDate": "2020-12-08T15:04:06",
                                        "resource": "RCID11",
                                        "rollup": true,
                                        "color": "teal"
                                    },
                                    {
                                        "id": 10011001,
                                        "name": "\u9632\u710a\u5370\u5237",
                                        "startDate": "2020-12-08T16:14:06",
                                        "endDate": "2020-12-08T18:44:06",
                                        "resource": "RCID12",
                                        "rollup": true,
                                        "color": "teal"
                                    },
                                    {
                                        "id": 10008001,
                                        "name": "\u524d\u7f6e",
                                        "startDate": "2020-12-08T12:24:06",
                                        "endDate": "2020-12-08T12:44:06",
                                        "resource": "RCID13",
                                        "rollup": true,
                                        "color": "teal"
                                    },
                                    {
                                        "id": 10014001,
                                        "name": "\u76ee\u6aa2\u4f5c\u696d",
                                        "startDate": "2020-12-08T22:34:06",
                                        "endDate": "2020-12-09T00:49:06",
                                        "resource": "RCID14",
                                        "rollup": true,
                                        "color": "teal"
                                    },
                                    {
                                        "id": 10007001,
                                        "name": "\u4e00\u9285",
                                        "startDate": "2020-12-08T07:24:06",
                                        "endDate": "2020-12-08T09:24:06",
                                        "resource": "RCID3",
                                        "rollup": true,
                                        "color": "teal"
                                    },
                                    {
                                        "id": 10009001,
                                        "name": "\u6a5f\u947d",
                                        "startDate": "2020-12-08T14:24:06",
                                        "endDate": "2020-12-08T15:54:06",
                                        "resource": "RCID4",
                                        "rollup": true,
                                        "color": "teal"
                                    },
                                    {
                                        "id": 10012001,
                                        "name": "\u70d8\u70e4",
                                        "startDate": "2020-12-08T16:34:06",
                                        "endDate": "2020-12-08T20:04:06",
                                        "resource": "RCID5",
                                        "rollup": true,
                                        "color": "teal"
                                    },
                                    {
                                        "id": 10006001,
                                        "name": "\u71b1\u58d3",
                                        "startDate": "2020-12-08T06:44:06",
                                        "endDate": "2020-12-08T11:44:06",
                                        "resource": "RCID8",
                                        "rollup": true,
                                        "color": "teal"
                                    }
                                ],
                                "color": "teal"
                            },
                            {
                                "id": 1001002,
                                "name": "PA00000011",
                                "percentDone": 0,
                                "startDate": "2020-12-08T06:44:06",
                                "endDate": "2020-12-09T03:04:06",
                                "expanded": true,
                                "rollup": true,
                                "children": [
                                    {
                                        "id": 10013002,
                                        "name": "\u6210\u578b",
                                        "startDate": "2020-12-08T20:04:06",
                                        "endDate": "2020-12-08T21:04:06",
                                        "resource": "RCID10",
                                        "rollup": true,
                                        "color": "teal"
                                    },
                                    {
                                        "id": 10010002,
                                        "name": "AOI",
                                        "startDate": "2020-12-08T15:04:06",
                                        "endDate": "2020-12-08T15:24:06",
                                        "resource": "RCID11",
                                        "rollup": true,
                                        "color": "teal"
                                    },
                                    {
                                        "id": 10008002,
                                        "name": "\u524d\u7f6e",
                                        "startDate": "2020-12-08T12:44:06",
                                        "endDate": "2020-12-08T13:04:06",
                                        "resource": "RCID13",
                                        "rollup": true,
                                        "color": "teal"
                                    },
                                    {
                                        "id": 10014002,
                                        "name": "\u76ee\u6aa2\u4f5c\u696d",
                                        "startDate": "2020-12-09T00:49:06",
                                        "endDate": "2020-12-09T03:04:06",
                                        "resource": "RCID14",
                                        "rollup": true,
                                        "color": "teal"
                                    },
                                    {
                                        "id": 10011002,
                                        "name": "\u9632\u710a\u5370\u5237",
                                        "startDate": "2020-12-08T16:14:06",
                                        "endDate": "2020-12-08T18:44:06",
                                        "resource": "RCID15",
                                        "rollup": true,
                                        "color": "teal"
                                    },
                                    {
                                        "id": 10007002,
                                        "name": "\u4e00\u9285",
                                        "startDate": "2020-12-08T09:24:06",
                                        "endDate": "2020-12-08T11:24:06",
                                        "resource": "RCID3",
                                        "rollup": true,
                                        "color": "teal"
                                    },
                                    {
                                        "id": 10009002,
                                        "name": "\u6a5f\u947d",
                                        "startDate": "2020-12-08T15:54:06",
                                        "endDate": "2020-12-08T17:24:06",
                                        "resource": "RCID4",
                                        "rollup": true,
                                        "color": "teal"
                                    },
                                    {
                                        "id": 10012002,
                                        "name": "\u70d8\u70e4",
                                        "startDate": "2020-12-08T20:04:06",
                                        "endDate": "2020-12-08T23:34:06",
                                        "resource": "RCID5",
                                        "rollup": true,
                                        "color": "teal"
                                    },
                                    {
                                        "id": 10006002,
                                        "name": "\u71b1\u58d3",
                                        "startDate": "2020-12-08T06:44:06",
                                        "endDate": "2020-12-08T11:44:06",
                                        "resource": "RCID9",
                                        "rollup": true,
                                        "color": "teal"
                                    }
                                ],
                                "color": "teal"
                            }
                        ]
                    },
                    {
                        "id": 100001,
                        "name": "MO1840001",
                        "percentDone": 0,
                        "startDate": "2020-12-08T06:09:06",
                        "endDate": "2020-12-09T16:49:06",
                        "expanded": true,
                        "rollup": true,
                        "children": [
                            {
                                "id": 1000001,
                                "name": "PA00000021",
                                "percentDone": 0,
                                "startDate": "2020-12-08T06:09:06",
                                "endDate": "2020-12-09T16:49:06",
                                "expanded": true,
                                "rollup": true,
                                "children": [
                                    {
                                        "id": 10000025,
                                        "name": "AOI",
                                        "startDate": "2020-12-08T16:34:06",
                                        "endDate": "2020-12-08T16:54:06",
                                        "resource": "RCID11",
                                        "rollup": true,
                                        "color": "teal"
                                    },
                                    {
                                        "id": 10000026,
                                        "name": "AOI",
                                        "startDate": "2020-12-08T16:54:06",
                                        "endDate": "2020-12-08T17:14:06",
                                        "resource": "RCID11",
                                        "rollup": true,
                                        "color": "teal"
                                    },
                                    {
                                        "id": 10000027,
                                        "name": "AOI",
                                        "startDate": "2020-12-08T17:14:06",
                                        "endDate": "2020-12-08T17:34:06",
                                        "resource": "RCID11",
                                        "rollup": true,
                                        "color": "teal"
                                    },
                                    {
                                        "id": 10000014,
                                        "name": "\u88c1\u677f",
                                        "startDate": "2020-12-08T13:04:06",
                                        "endDate": "2020-12-08T13:14:06",
                                        "resource": "RCID13",
                                        "rollup": true,
                                        "color": "teal"
                                    },
                                    {
                                        "id": 10000015,
                                        "name": "\u88c1\u677f",
                                        "startDate": "2020-12-08T13:14:06",
                                        "endDate": "2020-12-08T13:24:06",
                                        "resource": "RCID13",
                                        "rollup": true,
                                        "color": "teal"
                                    },
                                    {
                                        "id": 10000028,
                                        "name": "\u88c1\u677f",
                                        "startDate": "2020-12-08T23:34:06",
                                        "endDate": "2020-12-08T23:44:06",
                                        "resource": "RCID13",
                                        "rollup": true,
                                        "color": "teal"
                                    },
                                    {
                                        "id": 10000020,
                                        "name": "\u66dd\u5149",
                                        "startDate": "2020-12-08T07:24:06",
                                        "endDate": "2020-12-08T07:44:06",
                                        "resource": "RCID17",
                                        "rollup": true,
                                        "color": "teal"
                                    },
                                    {
                                        "id": 10000021,
                                        "name": "\u66dd\u5149",
                                        "startDate": "2020-12-08T07:44:06",
                                        "endDate": "2020-12-08T08:04:06",
                                        "resource": "RCID17",
                                        "rollup": true,
                                        "color": "teal"
                                    },
                                    {
                                        "id": 10000022,
                                        "name": "\u66dd\u5149",
                                        "startDate": "2020-12-08T08:04:06",
                                        "endDate": "2020-12-08T08:24:06",
                                        "resource": "RCID17",
                                        "rollup": true,
                                        "color": "teal"
                                    },
                                    {
                                        "id": 10000023,
                                        "name": "\u66dd\u5149",
                                        "startDate": "2020-12-08T08:24:06",
                                        "endDate": "2020-12-08T08:44:06",
                                        "resource": "RCID17",
                                        "rollup": true,
                                        "color": "teal"
                                    },
                                    {
                                        "id": 10000024,
                                        "name": "\u986f\u5f71",
                                        "startDate": "2020-12-08T16:14:06",
                                        "endDate": "2020-12-08T19:44:06",
                                        "resource": "RCID2",
                                        "rollup": true,
                                        "color": "teal"
                                    },
                                    {
                                        "id": 10000016,
                                        "name": "\u70d8\u70e4",
                                        "startDate": "2020-12-08T23:34:06",
                                        "endDate": "2020-12-08T23:59:06",
                                        "resource": "RCID5",
                                        "rollup": true,
                                        "color": "teal"
                                    },
                                    {
                                        "id": 10000017,
                                        "name": "\u58d3\u819c",
                                        "startDate": "2020-12-08T06:09:06",
                                        "endDate": "2020-12-08T06:49:06",
                                        "resource": "RCID7",
                                        "rollup": true,
                                        "color": "teal"
                                    },
                                    {
                                        "id": 10000018,
                                        "name": "\u58d3\u819c",
                                        "startDate": "2020-12-08T06:49:06",
                                        "endDate": "2020-12-08T07:29:06",
                                        "resource": "RCID7",
                                        "rollup": true,
                                        "color": "teal"
                                    },
                                    {
                                        "id": 10000019,
                                        "name": "\u58d3\u819c",
                                        "startDate": "2020-12-08T07:29:06",
                                        "endDate": "2020-12-08T08:09:06",
                                        "resource": "RCID7",
                                        "rollup": true,
                                        "color": "teal"
                                    },
                                    {
                                        "id": 10000029,
                                        "name": "\u71b1\u58d3",
                                        "startDate": "2020-12-09T01:49:06",
                                        "endDate": "2020-12-09T06:49:06",
                                        "resource": "RCID8",
                                        "rollup": true,
                                        "color": "teal"
                                    },
                                    {
                                        "id": 10000030,
                                        "name": "\u71b1\u58d3",
                                        "startDate": "2020-12-09T06:49:06",
                                        "endDate": "2020-12-09T11:49:06",
                                        "resource": "RCID8",
                                        "rollup": true,
                                        "color": "teal"
                                    },
                                    {
                                        "id": 10000031,
                                        "name": "\u71b1\u58d3",
                                        "startDate": "2020-12-09T11:49:06",
                                        "endDate": "2020-12-09T16:49:06",
                                        "resource": "RCID8",
                                        "rollup": true,
                                        "color": "teal"
                                    }
                                ],
                                "color": "teal"
                            }
                        ]
                    },
                    {
                        "id": 100002,
                        "name": "MO1840002",
                        "percentDone": 0,
                        "startDate": "2020-12-08T05:19:06",
                        "endDate": "2020-12-08T05:44:06",
                        "expanded": true,
                        "rollup": true,
                        "children": [
                            {
                                "id": 1000002,
                                "name": "PA00000001",
                                "percentDone": 0,
                                "startDate": "2020-12-08T05:19:06",
                                "endDate": "2020-12-08T05:44:06",
                                "expanded": true,
                                "rollup": true,
                                "children": [
                                    {
                                        "id": 10000032,
                                        "name": "\u5167\u5c64\u524d\u8655\u7406\u6e2c\u8a66",
                                        "startDate": "2020-12-08T05:19:06",
                                        "endDate": "2020-12-08T05:44:06",
                                        "resource": "RCID6",
                                        "rollup": true,
                                        "color": "teal"
                                    }
                                ],
                                "color": "teal"
                            }
                        ]
                    }
                ]
            }
        ]
    },
    "dependencies": {
        "rows": [
            {
                "id": 1,
                "fromTask": 10000001,
                "toTask": 10000003
            },
            {
                "id": 2,
                "fromTask": 10011001,
                "toTask": 10013001
            },
            {
                "id": 3,
                "fromTask": 10011002,
                "toTask": 10013002
            },
            {
                "id": 4,
                "fromTask": 10008001,
                "toTask": 10010001
            },
            {
                "id": 5,
                "fromTask": 10008002,
                "toTask": 10010002
            },
            {
                "id": 6,
                "fromTask": 10000023,
                "toTask": 10000025
            },
            {
                "id": 7,
                "fromTask": 10000024,
                "toTask": 10000026
            },
            {
                "id": 8,
                "fromTask": 10000025,
                "toTask": 10000027
            },
            {
                "id": 9,
                "fromTask": 10009001,
                "toTask": 10011001
            },
            {
                "id": 10,
                "fromTask": 10006001,
                "toTask": 10008001
            },
            {
                "id": 11,
                "fromTask": 10006002,
                "toTask": 10008002
            },
            {
                "id": 14,
                "fromTask": 10000026,
                "toTask": 10000028
            },
            {
                "id": 15,
                "fromTask": 10012001,
                "toTask": 10014001
            },
            {
                "id": 16,
                "fromTask": 10012002,
                "toTask": 10014002
            },
            {
                "id": 17,
                "fromTask": 10009002,
                "toTask": 10011002
            },
            {
                "id": 19,
                "fromTask": 10000018,
                "toTask": 10000020
            },
            {
                "id": 20,
                "fromTask": 10000019,
                "toTask": 10000021
            },
            {
                "id": 21,
                "fromTask": 10000020,
                "toTask": 10000022
            },
            {
                "id": 22,
                "fromTask": 10000021,
                "toTask": 10000023
            },
            {
                "id": 23,
                "fromTask": 10000002,
                "toTask": 10000004
            },
            {
                "id": 24,
                "fromTask": 10000022,
                "toTask": 10000024
            },
            {
                "id": 27,
                "fromTask": 10007001,
                "toTask": 10009001
            },
            {
                "id": 28,
                "fromTask": 10007002,
                "toTask": 10009002
            },
            {
                "id": 29,
                "fromTask": 10010001,
                "toTask": 10012001
            },
            {
                "id": 30,
                "fromTask": 10010002,
                "toTask": 10012002
            },
            {
                "id": 31,
                "fromTask": 10000014,
                "toTask": 10000016
            },
            {
                "id": 34,
                "fromTask": 10000000,
                "toTask": 10000002
            },
            {
                "id": 35,
                "fromTask": 10000015,
                "toTask": 10000017
            },
            {
                "id": 36,
                "fromTask": 10000016,
                "toTask": 10000018
            },
            {
                "id": 37,
                "fromTask": 10000017,
                "toTask": 10000019
            },
            {
                "id": 39,
                "fromTask": 10000027,
                "toTask": 10000029
            },
            {
                "id": 40,
                "fromTask": 10000028,
                "toTask": 10000030
            },
            {
                "id": 41,
                "fromTask": 10000029,
                "toTask": 10000031
            }
        ]
    },
    "resources": {
        "rows": [
            {
                "id": 0,
                "name": "M001"
            },
            {
                "id": 1,
                "name": "M002"
            },
            {
                "id": 10,
                "name": "M011"
            },
            {
                "id": 11,
                "name": "M012"
            },
            {
                "id": 12,
                "name": "M013"
            },
            {
                "id": 13,
                "name": "H001"
            },
            {
                "id": 14,
                "name": "H002"
            },
            {
                "id": 15,
                "name": "H003"
            },
            {
                "id": 16,
                "name": "H004"
            },
            {
                "id": 17,
                "name": "H005"
            },
            {
                "id": 2,
                "name": "M003"
            },
            {
                "id": 3,
                "name": "M004"
            },
            {
                "id": 4,
                "name": "M005"
            },
            {
                "id": 5,
                "name": "M006"
            },
            {
                "id": 6,
                "name": "M007"
            },
            {
                "id": 7,
                "name": "M008"
            },
            {
                "id": 8,
                "name": "M009"
            },
            {
                "id": 9,
                "name": "M010"
            }
        ]
    },
    "assignments": {
        "rows": [
            {
                "id": 0,
                "event": 10000000,
                "resource": 0
            },
            {
                "id": 1,
                "event": 10000003,
                "resource": 1
            },
            {
                "id": 2,
                "event": 10013001,
                "resource": 10
            },
            {
                "id": 3,
                "event": 10013002,
                "resource": 10
            },
            {
                "id": 4,
                "event": 10010001,
                "resource": 11
            },
            {
                "id": 5,
                "event": 10010002,
                "resource": 11
            },
            {
                "id": 6,
                "event": 10000025,
                "resource": 11
            },
            {
                "id": 7,
                "event": 10000026,
                "resource": 11
            },
            {
                "id": 8,
                "event": 10000027,
                "resource": 11
            },
            {
                "id": 9,
                "event": 10011001,
                "resource": 12
            },
            {
                "id": 10,
                "event": 10008001,
                "resource": 13
            },
            {
                "id": 11,
                "event": 10008002,
                "resource": 13
            },
            {
                "id": 12,
                "event": 10000014,
                "resource": 13
            },
            {
                "id": 13,
                "event": 10000015,
                "resource": 13
            },
            {
                "id": 14,
                "event": 10000028,
                "resource": 13
            },
            {
                "id": 15,
                "event": 10014001,
                "resource": 14
            },
            {
                "id": 16,
                "event": 10014002,
                "resource": 14
            },
            {
                "id": 17,
                "event": 10011002,
                "resource": 15
            },
            {
                "id": 18,
                "event": 10000001,
                "resource": 16
            },
            {
                "id": 19,
                "event": 10000020,
                "resource": 17
            },
            {
                "id": 20,
                "event": 10000021,
                "resource": 17
            },
            {
                "id": 21,
                "event": 10000022,
                "resource": 17
            },
            {
                "id": 22,
                "event": 10000023,
                "resource": 17
            },
            {
                "id": 23,
                "event": 10000004,
                "resource": 2
            },
            {
                "id": 24,
                "event": 10000024,
                "resource": 2
            },
            {
                "id": 25,
                "event": 10007001,
                "resource": 3
            },
            {
                "id": 26,
                "event": 10007002,
                "resource": 3
            },
            {
                "id": 27,
                "event": 10009001,
                "resource": 4
            },
            {
                "id": 28,
                "event": 10009002,
                "resource": 4
            },
            {
                "id": 29,
                "event": 10012001,
                "resource": 5
            },
            {
                "id": 30,
                "event": 10012002,
                "resource": 5
            },
            {
                "id": 31,
                "event": 10000016,
                "resource": 5
            },
            {
                "id": 32,
                "event": 10000032,
                "resource": 6
            },
            {
                "id": 33,
                "event": 10000001,
                "resource": 6
            },
            {
                "id": 34,
                "event": 10000002,
                "resource": 7
            },
            {
                "id": 35,
                "event": 10000017,
                "resource": 7
            },
            {
                "id": 36,
                "event": 10000018,
                "resource": 7
            },
            {
                "id": 37,
                "event": 10000019,
                "resource": 7
            },
            {
                "id": 38,
                "event": 10006001,
                "resource": 8
            },
            {
                "id": 39,
                "event": 10000029,
                "resource": 8
            },
            {
                "id": 40,
                "event": 10000030,
                "resource": 8
            },
            {
                "id": 41,
                "event": 10000031,
                "resource": 8
            },
            {
                "id": 42,
                "event": 10006002,
                "resource": 9
            }
        ]
    }
}