{
    "success": true,
    "tasks": {
        "rows": [
            {
                "id": 10001,
                "name": "2021-04-19 16:44",
                "percentDone": 0,
                "startDate": "",
                "endDate": "",
                "expanded": true,
                "children": [
                    {
                        "id": 100000,
                        "name": "MA-2020120076",
                        "percentDone": 0,
                        "startDate": "2021-04-19T16:44",
                        "endDate": "2021-04-22T11:12",
                        "expanded": true,
                        "rollup": true,
                        "children": [
                            {
                                "id": 1000000,
                                "name": "OB-4586C54",
                                "deadlineDate": "2021-03-08",
                                "percentDone": 0,
                                "startDate": "2021-04-19T16:44",
                                "endDate": "2021-04-22T11:12",
                                "expanded": true,
                                "rollup": true,
                                "children": [
                                    {
                                        "id": 10000000,
                                        "name": "[OB-4586C54-0001]\u88fd\u7a0b1",
                                        "startDate": "2021-04-21T00:00:00+08:00",
                                        "endDate": "2021-04-21T00:15:00+08:00",
                                        "rollup": true,
                                        "color": "teal",
                                        "constraintType": "startnoearlierthan"
                                    },
                                    {
                                        "id": 10000001,
                                        "name": "[OB-4586C54-0002]\u88fd\u7a0b2",
                                        "startDate": "2021-04-21T00:15:00+08:00",
                                        "endDate": "2021-04-21T15:45:00+08:00",
                                        "rollup": true,
                                        "color": "teal",
                                        "constraintType": "startnoearlierthan"
                                    },
                                    {
                                        "id": 10000002,
                                        "name": "[OB-4586C54-0003]\u88fd\u7a0b3",
                                        "startDate": "2021-04-21T15:45:00+08:00",
                                        "endDate": "2021-04-21T16:08:00+08:00",
                                        "rollup": true,
                                        "color": "teal",
                                        "constraintType": "startnoearlierthan"
                                    },
                                    {
                                        "id": 10000003,
                                        "name": "[OB-4586C54-0004]\u88fd\u7a0b4",
                                        "startDate": "2021-04-21T16:08:00+08:00",
                                        "endDate": "2021-04-21T16:37:00+08:00",
                                        "rollup": true,
                                        "color": "teal",
                                        "constraintType": "startnoearlierthan"
                                    },
                                    {
                                        "id": 10000004,
                                        "name": "[OB-4586C54-0004]\u88fd\u7a0b5",
                                        "startDate": "2021-04-21T16:08:00+08:00",
                                        "endDate": "2021-04-21T16:31:00+08:00",
                                        "rollup": true,
                                        "color": "teal",
                                        "constraintType": "startnoearlierthan"
                                    },
                                    {
                                        "id": 10000005,
                                        "name": "[OB-4586C54-0004]\u88fd\u7a0b6",
                                        "startDate": "2021-04-21T16:08:00+08:00",
                                        "endDate": "2021-04-21T16:53:00+08:00",
                                        "rollup": true,
                                        "color": "teal",
                                        "constraintType": "startnoearlierthan"
                                    },
                                    {
                                        "id": 10000006,
                                        "name": "[OB-4586C54-0005]\u88fd\u7a0b7",
                                        "startDate": "2021-04-21T16:53:00+08:00",
                                        "endDate": "2021-04-23T17:53:00+08:00",
                                        "rollup": true,
                                        "color": "teal",
                                        "constraintType": "startnoearlierthan"
                                    },
                                    {
                                        "id": 10000007,
                                        "name": "[OB-4586C54-0006]\u88fd\u7a0b8",
                                        "startDate": "2021-04-23T17:53:00+08:00",
                                        "endDate": "2021-04-23T18:28:00+08:00",
                                        "rollup": true,
                                        "color": "teal",
                                        "constraintType": "startnoearlierthan"
                                    }
                                ],
                                "DeadlineDate": ""
                            }
                        ],
                        "DeadlineDate": ""
                    },
                    {
                        "id": 100001,
                        "name": "MA-2020120077",
                        "percentDone": 0,
                        "startDate": "2021-04-20T08:29",
                        "endDate": "2021-04-24T13:12",
                        "expanded": true,
                        "rollup": true,
                        "children": [
                            {
                                "id": 1000001,
                                "name": "OB-4586C56",
                                "deadlineDate": "2021-03-08",
                                "percentDone": 0,
                                "startDate": "2021-04-20T08:29",
                                "endDate": "2021-04-24T13:12",
                                "expanded": true,
                                "rollup": true,
                                "children": [
                                    {
                                        "id": 10000008,
                                        "name": "[OB-4586C56-0001]\u88fd\u7a0b1",
                                        "startDate": "2021-04-20T08:29",
                                        "endDate": "2021-04-20T08:44",
                                        "rollup": true,
                                        "color": "teal",
                                        "constraintType": "startnoearlierthan"
                                    },
                                    {
                                        "id": 10000009,
                                        "name": "[OB-4586C56-0002]\u88fd\u7a0b2",
                                        "startDate": "2021-04-20T08:44",
                                        "endDate": "2021-04-20T09:14",
                                        "rollup": true,
                                        "color": "teal",
                                        "constraintType": "startnoearlierthan"
                                    },
                                    {
                                        "id": 10000010,
                                        "name": "[OB-4586C56-0003]\u88fd\u7a0b3",
                                        "startDate": "2021-04-20T09:14",
                                        "endDate": "2021-04-20T09:37",
                                        "rollup": true,
                                        "color": "teal",
                                        "constraintType": "startnoearlierthan"
                                    },
                                    {
                                        "id": 10000011,
                                        "name": "[OB-4586C56-0004]\u88fd\u7a0b4",
                                        "startDate": "2021-04-20T09:37",
                                        "endDate": "2021-04-20T10:06",
                                        "rollup": true,
                                        "color": "teal",
                                        "constraintType": "startnoearlierthan"
                                    },
                                    {
                                        "id": 10000012,
                                        "name": "[OB-4586C56-0004]\u88fd\u7a0b5",
                                        "startDate": "2021-04-20T09:37",
                                        "endDate": "2021-04-20T10:00",
                                        "rollup": true,
                                        "color": "teal",
                                        "constraintType": "startnoearlierthan"
                                    },
                                    {
                                        "id": 10000013,
                                        "name": "[OB-4586C56-0004]\u88fd\u7a0b6",
                                        "startDate": "2021-04-20T09:37",
                                        "endDate": "2021-04-20T10:22",
                                        "rollup": true,
                                        "color": "teal",
                                        "constraintType": "startnoearlierthan"
                                    },
                                    {
                                        "id": 10000014,
                                        "name": "[OB-4586C56-0005]\u88fd\u7a0b7",
                                        "startDate": "2021-04-22T10:37",
                                        "endDate": "2021-04-24T11:37",
                                        "rollup": true,
                                        "color": "teal",
                                        "constraintType": "startnoearlierthan"
                                    },
                                    {
                                        "id": 10000015,
                                        "name": "[OB-4586C56-0006]\u88fd\u7a0b8",
                                        "startDate": "2021-04-24T11:37",
                                        "endDate": "2021-04-24T13:12",
                                        "rollup": true,
                                        "color": "teal",
                                        "constraintType": "startnoearlierthan"
                                    }
                                ],
                                "DeadlineDate": ""
                            }
                        ],
                        "DeadlineDate": ""
                    }
                ]
            }
        ]
    },
    "dependencies": {
        "rows": [
            {
                "id": 0,
                "fromTask": 10000000,
                "toTask": 10000001
            },
            {
                "id": 1,
                "fromTask": 10000001,
                "toTask": 10000002
            },
            {
                "id": 2,
                "fromTask": 10000002,
                "toTask": 10000003
            },
            {
                "id": 3,
                "fromTask": 10000002,
                "toTask": 10000004
            },
            {
                "id": 4,
                "fromTask": 10000002,
                "toTask": 10000005
            },
            {
                "id": 5,
                "fromTask": 10000003,
                "toTask": 10000006
            },
            {
                "id": 6,
                "fromTask": 10000004,
                "toTask": 10000006
            },
            {
                "id": 7,
                "fromTask": 10000005,
                "toTask": 10000006
            },
            {
                "id": 8,
                "fromTask": 10000006,
                "toTask": 10000007
            },
            {
                "id": 9,
                "fromTask": 10000008,
                "toTask": 10000009
            },
            {
                "id": 10,
                "fromTask": 10000009,
                "toTask": 10000010
            },
            {
                "id": 11,
                "fromTask": 10000010,
                "toTask": 10000011
            },
            {
                "id": 12,
                "fromTask": 10000010,
                "toTask": 10000012
            },
            {
                "id": 13,
                "fromTask": 10000010,
                "toTask": 10000013
            },
            {
                "id": 14,
                "fromTask": 10000011,
                "toTask": 10000014
            },
            {
                "id": 15,
                "fromTask": 10000012,
                "toTask": 10000014
            },
            {
                "id": 16,
                "fromTask": 10000013,
                "toTask": 10000014
            },
            {
                "id": 17,
                "fromTask": 10000014,
                "toTask": 10000015
            }
        ]
    },
    "resources": {
        "rows": [
            {
                "id": 0,
                "name": "H001"
            },
            {
                "id": 1,
                "name": "H002"
            },
            {
                "id": 2,
                "name": "H003"
            },
            {
                "id": 3,
                "name": "H004"
            },
            {
                "id": 4,
                "name": "M001"
            },
            {
                "id": 5,
                "name": "M002"
            },
            {
                "id": 6,
                "name": "M003"
            },
            {
                "id": 7,
                "name": "M004"
            },
            {
                "id": 8,
                "name": "M005"
            },
            {
                "id": 9,
                "name": "M006"
            },
            {
                "id": 10,
                "name": "M007"
            },
            {
                "id": 11,
                "name": "M008"
            },
            {
                "id": 12,
                "name": "vendor1"
            },
            {
                "id": 13,
                "name": "vendor2"
            }
        ]
    },
    "assignments": {
        "rows": [
            {
                "id": 0,
                "event": 10000000,
                "resource": 0
            },
            {
                "id": 1,
                "event": 10000001,
                "resource": 0
            },
            {
                "id": 2,
                "event": 10000001,
                "resource": 4
            },
            {
                "id": 3,
                "event": 10000002,
                "resource": 1
            },
            {
                "id": 4,
                "event": 10000002,
                "resource": 5
            },
            {
                "id": 5,
                "event": 10000003,
                "resource": 6
            },
            {
                "id": 6,
                "event": 10000004,
                "resource": 7
            },
            {
                "id": 7,
                "event": 10000005,
                "resource": 8
            },
            {
                "id": 8,
                "event": 10000006,
                "resource": 12
            },
            {
                "id": 9,
                "event": 10000007,
                "resource": 3
            },
            {
                "id": 10,
                "event": 10000007,
                "resource": 10
            },
            {
                "id": 11,
                "event": 10000008,
                "resource": 0
            },
            {
                "id": 12,
                "event": 10000009,
                "resource": 0
            },
            {
                "id": 13,
                "event": 10000009,
                "resource": 4
            },
            {
                "id": 14,
                "event": 10000010,
                "resource": 1
            },
            {
                "id": 15,
                "event": 10000010,
                "resource": 5
            },
            {
                "id": 16,
                "event": 10000011,
                "resource": 6
            },
            {
                "id": 17,
                "event": 10000012,
                "resource": 7
            },
            {
                "id": 18,
                "event": 10000013,
                "resource": 8
            },
            {
                "id": 19,
                "event": 10000014,
                "resource": 12
            },
            {
                "id": 20,
                "event": 10000015,
                "resource": 3
            },
            {
                "id": 21,
                "event": 10000015,
                "resource": 10
            }
        ]
    }
}