{
    "success": true,
    "tasks": {
        "rows": [
            {
                "id": 10000,
                "name": "2021-05-03 17:18",
                "percentDone": 0,
                "startDate": "",
                "endDate": "",
                "expanded": true,
                "children": [
                    {
                        "id": 100000,
                        "name": "MA-2020120076",
                        "percentDone": 0,
                        "startDate": "2021-05-04T07:00",
                        "endDate": "2021-05-07T08:00",
                        "expanded": true,
                        "rollup": true,
                        "children": [
                            {
                                "id": 1000000,
                                "name": "OB-4586C54",
                                "deadlineDate": "2021-04-18",
                                "percentDone": 0,
                                "startDate": "2021-05-04T07:00",
                                "endDate": "2021-05-06T11:00",
                                "expanded": true,
                                "rollup": true,
                                "children": [
                                    {
                                        "id": 10000000,
                                        "name": "[OB-4586C54-0001]\u88fd\u7a0b1-B",
                                        "startDate": "2021-05-04T07:00",
                                        "endDate": "2021-05-04T08:00",
                                        "rollup": true,
                                        "color": "teal",
                                        "constraintType": "startnoearlierthan"
                                    },
                                    {
                                        "id": 10000001,
                                        "name": "[OB-4586C54-0002]\u88fd\u7a0b2",
                                        "startDate": "2021-05-08T07:00:00+08:00",
                                        "endDate": "2021-05-08T21:00:00+08:00",
                                        "rollup": true,
                                        "color": "teal",
                                        "constraintType": "startnoearlierthan"
                                    },
                                    {
                                        "id": 10000002,
                                        "name": "[OB-4586C54-0003]\u88fd\u7a0b3",
                                        "startDate": "2021-05-10T11:00:00+08:00",
                                        "endDate": "2021-05-11T05:00:00+08:00",
                                        "rollup": true,
                                        "color": "teal",
                                        "constraintType": "startnoearlierthan"
                                    },
                                    {
                                        "id": 10000003,
                                        "name": "[OB-4586C54-0004]\u88fd\u7a0b4",
                                        "startDate": "2021-05-11T05:00:00+08:00",
                                        "endDate": "2021-05-11T11:00:00+08:00",
                                        "rollup": true,
                                        "color": "teal",
                                        "constraintType": "startnoearlierthan"
                                    },
                                    {
                                        "id": 10000004,
                                        "name": "[OB-4586C54-0004]\u88fd\u7a0b5",
                                        "startDate": "2021-05-11T05:00:00+08:00",
                                        "endDate": "2021-05-11T06:30:00+08:00",
                                        "rollup": true,
                                        "color": "teal",
                                        "constraintType": "startnoearlierthan"
                                    },
                                    {
                                        "id": 10000005,
                                        "name": "[OB-4586C54-0004]\u88fd\u7a0b6",
                                        "startDate": "2021-05-11T05:00:00+08:00",
                                        "endDate": "2021-05-11T07:00:00+08:00",
                                        "rollup": true,
                                        "color": "teal",
                                        "constraintType": "startnoearlierthan"
                                    },
                                    {
                                        "id": 10000006,
                                        "name": "[OB-4586C54-0005]\u88fd\u7a0b7",
                                        "startDate": "2021-05-11T11:00:00+08:00",
                                        "endDate": "2021-05-11T16:00:00+08:00",
                                        "rollup": true,
                                        "color": "teal",
                                        "constraintType": "startnoearlierthan"
                                    },
                                    {
                                        "id": 10000007,
                                        "name": "[OB-4586C54-0006]\u88fd\u7a0b8",
                                        "startDate": "2021-05-12T20:00:00+08:00",
                                        "endDate": "2021-05-13T16:00:00+08:00",
                                        "rollup": true,
                                        "color": "teal",
                                        "constraintType": "startnoearlierthan"
                                    }
                                ],
                                "DeadlineDate": ""
                            },
                            {
                                "id": 1000002,
                                "name": "OB-4586C56",
                                "deadlineDate": "2021-04-18",
                                "percentDone": 0,
                                "startDate": "2021-05-04T08:00",
                                "endDate": "2021-05-07T08:00",
                                "expanded": true,
                                "rollup": true,
                                "children": [
                                    {
                                        "id": 10000013,
                                        "name": "[OB-4586C56-0001]\u88fd\u7a0b1-B",
                                        "startDate": "2021-05-06T00:00:00+08:00",
                                        "endDate": "2021-05-06T01:00:00+08:00",
                                        "rollup": true,
                                        "color": "teal",
                                        "constraintType": "startnoearlierthan"
                                    },
                                    {
                                        "id": 10000014,
                                        "name": "[OB-4586C56-0002]\u88fd\u7a0b2",
                                        "startDate": "2021-05-06T01:00:00+08:00",
                                        "endDate": "2021-05-06T03:00:00+08:00",
                                        "rollup": true,
                                        "color": "teal",
                                        "constraintType": "startnoearlierthan"
                                    },
                                    {
                                        "id": 10000015,
                                        "name": "[OB-4586C56-0003]\u88fd\u7a0b3",
                                        "startDate": "2021-05-07T00:00:00+08:00",
                                        "endDate": "2021-05-07T03:00:00+08:00",
                                        "rollup": true,
                                        "color": "teal",
                                        "constraintType": "startnoearlierthan"
                                    },
                                    {
                                        "id": 10000016,
                                        "name": "[OB-4586C56-0004]\u88fd\u7a0b4",
                                        "startDate": "2021-05-07T03:00:00+08:00",
                                        "endDate": "2021-05-07T06:00:00+08:00",
                                        "rollup": true,
                                        "color": "teal",
                                        "constraintType": "startnoearlierthan"
                                    },
                                    {
                                        "id": 10000017,
                                        "name": "[OB-4586C56-0004]\u88fd\u7a0b5",
                                        "startDate": "2021-05-07T03:00:00+08:00",
                                        "endDate": "2021-05-07T05:30:00+08:00",
                                        "rollup": true,
                                        "color": "teal",
                                        "constraintType": "startnoearlierthan"
                                    },
                                    {
                                        "id": 10000018,
                                        "name": "[OB-4586C56-0004]\u88fd\u7a0b6",
                                        "startDate": "2021-05-07T03:00:00+08:00",
                                        "endDate": "2021-05-07T06:00:00+08:00",
                                        "rollup": true,
                                        "color": "teal",
                                        "constraintType": "startnoearlierthan"
                                    },
                                    {
                                        "id": 10000019,
                                        "name": "[OB-4586C56-0005]\u88fd\u7a0b7",
                                        "startDate": "2021-05-08T00:00:00+08:00",
                                        "endDate": "2021-05-08T19:00:00+08:00",
                                        "rollup": true,
                                        "color": "teal",
                                        "constraintType": "startnoearlierthan"
                                    },
                                    {
                                        "id": 10000020,
                                        "name": "[OB-4586C56-0006]\u88fd\u7a0b8",
                                        "startDate": "2021-05-08T19:00:00+08:00",
                                        "endDate": "2021-05-09T16:00:00+08:00",
                                        "rollup": true,
                                        "color": "teal",
                                        "constraintType": "startnoearlierthan"
                                    }
                                ],
                                "DeadlineDate": ""
                            }
                        ],
                        "DeadlineDate": ""
                    },
                    {
                        "id": 100001,
                        "name": "MA-2020120077",
                        "percentDone": 0,
                        "startDate": "2021-05-04T07:00",
                        "endDate": "2021-05-05T08:30",
                        "expanded": true,
                        "rollup": true,
                        "children": [
                            {
                                "id": 1000001,
                                "name": "OB-4586C55",
                                "deadlineDate": "2021-04-17",
                                "percentDone": 0,
                                "startDate": "2021-05-04T07:00",
                                "endDate": "2021-05-05T08:30",
                                "expanded": true,
                                "rollup": true,
                                "children": [
                                    {
                                        "id": 10000008,
                                        "name": "[OB-4586C55-0001]\u88fd\u7a0b1",
                                        "startDate": "2021-05-04T07:00",
                                        "endDate": "2021-05-04T08:00",
                                        "rollup": true,
                                        "color": "teal",
                                        "constraintType": "startnoearlierthan"
                                    },
                                    {
                                        "id": 10000009,
                                        "name": "[OB-4586C55-0002]\u88fd\u7a0b2",
                                        "startDate": "2021-05-04T08:00",
                                        "endDate": "2021-05-04T10:00",
                                        "rollup": true,
                                        "color": "teal",
                                        "constraintType": "startnoearlierthan"
                                    },
                                    {
                                        "id": 10000010,
                                        "name": "[OB-4586C55-0003]\u88fd\u7a0b3",
                                        "startDate": "2021-05-04T10:00",
                                        "endDate": "2021-05-04T14:00",
                                        "rollup": true,
                                        "color": "teal",
                                        "constraintType": "startnoearlierthan"
                                    },
                                    {
                                        "id": 10000011,
                                        "name": "[OB-4586C55-0004]\u88fd\u7a0b4",
                                        "startDate": "2021-05-04T14:00",
                                        "endDate": "2021-05-04T16:00",
                                        "rollup": true,
                                        "color": "teal",
                                        "constraintType": "startnoearlierthan"
                                    },
                                    {
                                        "id": 10000012,
                                        "name": "[OB-4586C55-0005]\u88fd\u7a0b5",
                                        "startDate": "2021-05-05T07:00",
                                        "endDate": "2021-05-05T08:30",
                                        "rollup": true,
                                        "color": "teal",
                                        "constraintType": "startnoearlierthan"
                                    }
                                ],
                                "DeadlineDate": ""
                            }
                        ],
                        "DeadlineDate": ""
                    }
                ]
            }
        ]
    },
    "dependencies": {
        "rows": [
            {
                "id": 0,
                "fromTask": 10000000,
                "toTask": 10000001
            },
            {
                "id": 1,
                "fromTask": 10000001,
                "toTask": 10000002
            },
            {
                "id": 2,
                "fromTask": 10000002,
                "toTask": 10000003
            },
            {
                "id": 3,
                "fromTask": 10000002,
                "toTask": 10000004
            },
            {
                "id": 4,
                "fromTask": 10000002,
                "toTask": 10000005
            },
            {
                "id": 5,
                "fromTask": 10000003,
                "toTask": 10000006
            },
            {
                "id": 6,
                "fromTask": 10000004,
                "toTask": 10000006
            },
            {
                "id": 7,
                "fromTask": 10000005,
                "toTask": 10000006
            },
            {
                "id": 8,
                "fromTask": 10000006,
                "toTask": 10000007
            },
            {
                "id": 9,
                "fromTask": 10000013,
                "toTask": 10000014
            },
            {
                "id": 10,
                "fromTask": 10000014,
                "toTask": 10000015
            },
            {
                "id": 11,
                "fromTask": 10000015,
                "toTask": 10000016
            },
            {
                "id": 12,
                "fromTask": 10000015,
                "toTask": 10000017
            },
            {
                "id": 13,
                "fromTask": 10000015,
                "toTask": 10000018
            },
            {
                "id": 14,
                "fromTask": 10000016,
                "toTask": 10000019
            },
            {
                "id": 15,
                "fromTask": 10000017,
                "toTask": 10000019
            },
            {
                "id": 16,
                "fromTask": 10000018,
                "toTask": 10000019
            },
            {
                "id": 17,
                "fromTask": 10000019,
                "toTask": 10000020
            },
            {
                "id": 18,
                "fromTask": 10000008,
                "toTask": 10000009
            },
            {
                "id": 19,
                "fromTask": 10000009,
                "toTask": 10000010
            },
            {
                "id": 20,
                "fromTask": 10000010,
                "toTask": 10000011
            },
            {
                "id": 21,
                "fromTask": 10000011,
                "toTask": 10000012
            }
        ]
    },
    "resources": {
        "rows": [
            {
                "id": 0,
                "name": "H001"
            },
            {
                "id": 1,
                "name": "H002"
            },
            {
                "id": 2,
                "name": "H003"
            },
            {
                "id": 3,
                "name": "M001"
            },
            {
                "id": 4,
                "name": "M002"
            },
            {
                "id": 5,
                "name": "M003"
            },
            {
                "id": 6,
                "name": "M004"
            },
            {
                "id": 7,
                "name": "M005"
            },
            {
                "id": 8,
                "name": "M006"
            },
            {
                "id": 9,
                "name": "M007"
            },
            {
                "id": 10,
                "name": "vendor1"
            },
            {
                "id": 11,
                "name": "vendor2"
            },
            {
                "id": 12,
                "name": "vendorB"
            },
            {
                "id": 13,
                "name": "\u88fd\u7a0b1-\u672a\u8a3b\u518a\u6a5f\u53f0"
            }
        ]
    },
    "assignments": {
        "rows": [
            {
                "id": 0,
                "event": 10000000,
                "resource": 12
            },
            {
                "id": 1,
                "event": 10000001,
                "resource": 3
            },
            {
                "id": 2,
                "event": 10000002,
                "resource": 0
            },
            {
                "id": 3,
                "event": 10000002,
                "resource": 4
            },
            {
                "id": 4,
                "event": 10000003,
                "resource": 5
            },
            {
                "id": 5,
                "event": 10000004,
                "resource": 6
            },
            {
                "id": 6,
                "event": 10000005,
                "resource": 7
            },
            {
                "id": 7,
                "event": 10000006,
                "resource": 11
            },
            {
                "id": 8,
                "event": 10000007,
                "resource": 2
            },
            {
                "id": 9,
                "event": 10000007,
                "resource": 8
            },
            {
                "id": 10,
                "event": 10000013,
                "resource": 12
            },
            {
                "id": 11,
                "event": 10000014,
                "resource": 3
            },
            {
                "id": 12,
                "event": 10000015,
                "resource": 0
            },
            {
                "id": 13,
                "event": 10000015,
                "resource": 4
            },
            {
                "id": 14,
                "event": 10000016,
                "resource": 5
            },
            {
                "id": 15,
                "event": 10000017,
                "resource": 6
            },
            {
                "id": 16,
                "event": 10000018,
                "resource": 7
            },
            {
                "id": 17,
                "event": 10000019,
                "resource": 11
            },
            {
                "id": 18,
                "event": 10000020,
                "resource": 2
            },
            {
                "id": 19,
                "event": 10000020,
                "resource": 9
            },
            {
                "id": 20,
                "event": 10000008,
                "resource": 13
            },
            {
                "id": 21,
                "event": 10000009,
                "resource": 3
            },
            {
                "id": 22,
                "event": 10000010,
                "resource": 0
            },
            {
                "id": 23,
                "event": 10000010,
                "resource": 4
            },
            {
                "id": 24,
                "event": 10000011,
                "resource": 5
            },
            {
                "id": 25,
                "event": 10000012,
                "resource": 6
            }
        ]
    }
}