{
    "0": {
        "客戶名稱": "CU-178",
        "訂單單號": "O-202012054",
        "工單單號": "MA-2020120076",
        "工單建立日期": "2021-03-03",
        "工單交期": "2021-03-08",
        "生產料號": "OB-4586C54",
        "生產數量": 20.0,
        "站點名稱": "\u7ad9\u9ede\u4e00",
        "工序流程": 1.0,
        "製程名稱": "\u88fd\u7a0b1",
        "內製外包": "in-house",
        "預估工時(分)": 15.0
    },
    "1": {
        "客戶名稱": "CU-178",
        "訂單單號": "O-202012054",
        "工單單號": "MA-2020120076",
        "工單建立日期": "2021-03-03",
        "工單交期": "2021-03-08",
        "生產料號": "OB-4586C54",
        "生產數量": 20.0,
        "站點名稱": "\u7ad9\u9ede\u4e00",
        "工序流程": 2.0,
        "製程名稱": "\u88fd\u7a0b2",
        "內製外包": "in-house",
        "預估工時(分)": 30.0
    },
    "2": {
        "客戶名稱": "CU-178",
        "訂單單號": "O-202012054",
        "工單單號": "MA-2020120076",
        "工單建立日期": "2021-03-03",
        "工單交期": "2021-03-08",
        "生產料號": "OB-4586C54",
        "生產數量": 20.0,
        "站點名稱": "\u7ad9\u9ede\u4e00",
        "工序流程": 3.0,
        "製程名稱": "\u88fd\u7a0b3",
        "內製外包": "in-house",
        "預估工時(分)": 23.0
    },
    "3": {
        "客戶名稱": "CU-178",
        "訂單單號": "O-202012054",
        "工單單號": "MA-2020120076",
        "工單建立日期": "2021-03-03",
        "工單交期": "2021-03-08",
        "生產料號": "OB-4586C54",
        "生產數量": 20.0,
        "站點名稱": "\u7ad9\u9ede\u4e8c",
        "工序流程": 4.0,
        "製程名稱": "\u88fd\u7a0b4",
        "內製外包": "in-house",
        "預估工時(分)": 29.0
    },
    "4": {
        "客戶名稱": "CU-178",
        "訂單單號": "O-202012054",
        "工單單號": "MA-2020120076",
        "工單建立日期": "2021-03-03",
        "工單交期": "2021-03-08",
        "生產料號": "OB-4586C54",
        "生產數量": 20.0,
        "站點名稱": "\u7ad9\u9ede\u4e8c",
        "工序流程": 4.0,
        "製程名稱": "\u88fd\u7a0b5",
        "內製外包": "in-house",
        "預估工時(分)": 23.0
    },
    "5": {
        "客戶名稱": "CU-178",
        "訂單單號": "O-202012054",
        "工單單號": "MA-2020120076",
        "工單建立日期": "2021-03-03",
        "工單交期": "2021-03-08",
        "生產料號": "OB-4586C54",
        "生產數量": 20.0,
        "站點名稱": "\u7ad9\u9ede\u4e8c",
        "工序流程": 4.0,
        "製程名稱": "\u88fd\u7a0b6",
        "內製外包": "in-house",
        "預估工時(分)": 45.0
    },
    "6": {
        "客戶名稱": "CU-178",
        "訂單單號": "O-202012054",
        "工單單號": "MA-2020120076",
        "工單建立日期": "2021-03-03",
        "工單交期": "2021-03-08",
        "生產料號": "OB-4586C54",
        "生產數量": 20.0,
        "站點名稱": "\u7ad9\u9ede\u4e09",
        "工序流程": 5.0,
        "製程名稱": "\u88fd\u7a0b7",
        "內製外包": "out-內製外包",
        "預估工時(分)": 900.0
    },
    "7": {
        "客戶名稱": "CU-178",
        "訂單單號": "O-202012054",
        "工單單號": "MA-2020120076",
        "工單建立日期": "2021-03-03",
        "工單交期": "2021-03-08",
        "生產料號": "OB-4586C54",
        "生產數量": 20.0,
        "站點名稱": "\u7ad9\u9ede\u4e09",
        "工序流程": 6.0,
        "製程名稱": "\u88fd\u7a0b8",
        "內製外包": "in-house",
        "預估工時(分)": 35.0
    },
    "8": {
        "客戶名稱": "CU-178",
        "訂單單號": "O-202012055",
        "工單單號": "MA-2020120077",
        "工單建立日期": "2021-03-03",
        "工單交期": "2021-03-08",
        "生產料號": "OB-4586C56",
        "生產數量": 20.0,
        "站點名稱": "\u7ad9\u9ede\u4e00",
        "工序流程": 1.0,
        "製程名稱": "\u88fd\u7a0b1",
        "內製外包": "in-house",
        "預估工時(分)": 15.0
    },
    "9": {
        "客戶名稱": "CU-178",
        "訂單單號": "O-202012055",
        "工單單號": "MA-2020120077",
        "工單建立日期": "2021-03-03",
        "工單交期": "2021-03-08",
        "生產料號": "OB-4586C56",
        "生產數量": 20.0,
        "站點名稱": "\u7ad9\u9ede\u4e00",
        "工序流程": 2.0,
        "製程名稱": "\u88fd\u7a0b2",
        "內製外包": "in-house",
        "預估工時(分)": 30.0
    },
    "10": {
        "客戶名稱": "CU-178",
        "訂單單號": "O-202012055",
        "工單單號": "MA-2020120077",
        "工單建立日期": "2021-03-03",
        "工單交期": "2021-03-08",
        "生產料號": "OB-4586C56",
        "生產數量": 20.0,
        "站點名稱": "\u7ad9\u9ede\u4e00",
        "工序流程": 3.0,
        "製程名稱": "\u88fd\u7a0b3",
        "內製外包": "in-house",
        "預估工時(分)": 23.0
    },
    "11": {
        "客戶名稱": "CU-178",
        "訂單單號": "O-202012055",
        "工單單號": "MA-2020120077",
        "工單建立日期": "2021-03-03",
        "工單交期": "2021-03-08",
        "生產料號": "OB-4586C56",
        "生產數量": 20.0,
        "站點名稱": "\u7ad9\u9ede\u4e8c",
        "工序流程": 4.0,
        "製程名稱": "\u88fd\u7a0b4",
        "內製外包": "in-house",
        "預估工時(分)": 29.0
    },
    "12": {
        "客戶名稱": "CU-178",
        "訂單單號": "O-202012055",
        "工單單號": "MA-2020120077",
        "工單建立日期": "2021-03-03",
        "工單交期": "2021-03-08",
        "生產料號": "OB-4586C56",
        "生產數量": 20.0,
        "站點名稱": "\u7ad9\u9ede\u4e8c",
        "工序流程": 4.0,
        "製程名稱": "\u88fd\u7a0b5",
        "內製外包": "in-house",
        "預估工時(分)": 23.0
    },
    "13": {
        "客戶名稱": "CU-178",
        "訂單單號": "O-202012055",
        "工單單號": "MA-2020120077",
        "工單建立日期": "2021-03-03",
        "工單交期": "2021-03-08",
        "生產料號": "OB-4586C56",
        "生產數量": 20.0,
        "站點名稱": "\u7ad9\u9ede\u4e8c",
        "工序流程": 4.0,
        "製程名稱": "\u88fd\u7a0b6",
        "內製外包": "in-house",
        "預估工時(分)": 45.0
    },
    "14": {
        "客戶名稱": "CU-178",
        "訂單單號": "O-202012055",
        "工單單號": "MA-2020120077",
        "工單建立日期": "2021-03-03",
        "工單交期": "2021-03-08",
        "生產料號": "OB-4586C56",
        "生產數量": 20.0,
        "站點名稱": "\u7ad9\u9ede\u4e09",
        "工序流程": 5.0,
        "製程名稱": "\u88fd\u7a0b7",
        "內製外包": "out-內製外包",
        "預估工時(分)": 900.0
    },
    "15": {
        "客戶名稱": "CU-178",
        "訂單單號": "O-202012055",
        "工單單號": "MA-2020120077",
        "工單建立日期": "2021-03-03",
        "工單交期": "2021-03-08",
        "生產料號": "OB-4586C56",
        "生產數量": 20.0,
        "站點名稱": "\u7ad9\u9ede\u4e09",
        "工序流程": 6.0,
        "製程名稱": "\u88fd\u7a0b8",
        "內製外包": "in-house",
        "預估工時(分)": 35.0
    }
}