{
    "project_db": {
        "PID0": {
            "project_type": "\u4e00\u822c",
            "order_date": "2021-04-03",
            "status": "New",
            "due": "2021-04-18",
            "project_name": "MA-2020120076",
            "order_id": "O-202012054",
            "updated_on": "2021-05-03 17:18",
            "_product": [
                "PRDID0",
                "PRDID2"
            ],
            "customer_id": "CU-178"
        },
        "PID1": {
            "project_type": "\u6025\u4ef6",
            "order_date": "2021-04-04",
            "status": "New",
            "due": "2021-04-17",
            "project_name": "MA-2020120077",
            "order_id": "O-202012055",
            "updated_on": "2021-05-03 17:18",
            "_product": [
                "PRDID1"
            ],
            "customer_id": "CU-178"
        }
    },
    "process_db": {
        "PRCID0": {
            "_job": [
                "\u88fd\u7a0b1-B",
                "\u88fd\u7a0b2",
                "\u88fd\u7a0b3",
                "\u88fd\u7a0b1"
            ],
            "process_name": "\u7ad9\u9ede\u4e00"
        },
        "PRCID1": {
            "_job": [
                "\u88fd\u7a0b7",
                "\u88fd\u7a0b8"
            ],
            "process_name": "\u7ad9\u9ede\u4e09"
        },
        "PRCID2": {
            "_job": [
                "\u88fd\u7a0b4",
                "\u88fd\u7a0b5",
                "\u88fd\u7a0b6"
            ],
            "process_name": "\u7ad9\u9ede\u4e8c"
        }
    },
    "job_db": {
        "JID7": {
            "project_name": "MA-2020120076",
            "project_id": "PID0",
            "product_name": "OB-4586C54",
            "product_id": "PRDID0",
            "job_name": "\u88fd\u7a0b8",
            "qty": 20,
            "job_sequence": 6,
            "est_time": 300,
            "pre_product": null,
            "mother": {},
            "jlb_id": 17,
            "detail": null,
            "translated_detail": [],
            "process_name": "\u7ad9\u9ede\u4e09",
            "primary_resource": {
                "operator": [
                    "RCID2"
                ]
            },
            "secondary_resource": {
                "machine": [
                    "RCID8",
                    "RCID9"
                ]
            },
            "sourcing": "in-house",
            "skill": 9,
            "plan_start_time": "2021-05-07 05:00",
            "plan_end_time": "2021-05-08 01:00",
            "resource": {
                "RCID2": "H003",
                "RCID8": "M006"
            }
        },
        "JID8": {
            "project_name": "MA-2020120077",
            "project_id": "PID1",
            "product_name": "OB-4586C55",
            "product_id": "PRDID1",
            "job_name": "\u88fd\u7a0b1",
            "qty": 20,
            "job_sequence": 1,
            "est_time": 60,
            "pre_product": null,
            "mother": {},
            "jlb_id": 18,
            "detail": null,
            "translated_detail": [],
            "process_name": "\u7ad9\u9ede\u4e00",
            "primary_resource": {
                "virtual": [
                    "RCID13"
                ]
            },
            "secondary_resource": {},
            "sourcing": "in-house",
            "skill": 9,
            "plan_start_time": "2021-05-04 07:00",
            "plan_end_time": "2021-05-04 08:00",
            "resource": {
                "RCID13": "\u88fd\u7a0b1-\u672a\u8a3b\u518a\u6a5f\u53f0"
            }
        },
        "JID9": {
            "project_name": "MA-2020120077",
            "project_id": "PID1",
            "product_name": "OB-4586C55",
            "product_id": "PRDID1",
            "job_name": "\u88fd\u7a0b2",
            "qty": 20,
            "job_sequence": 2,
            "est_time": 120,
            "pre_product": null,
            "mother": {},
            "jlb_id": 11,
            "detail": null,
            "translated_detail": [],
            "process_name": "\u7ad9\u9ede\u4e00",
            "primary_resource": {
                "machine": [
                    "RCID3"
                ]
            },
            "secondary_resource": {},
            "sourcing": "in-house",
            "skill": 9,
            "plan_start_time": "2021-05-04 08:00",
            "plan_end_time": "2021-05-04 10:00",
            "resource": {
                "RCID3": "M001"
            }
        },
        "JID0": {
            "project_name": "MA-2020120076",
            "project_id": "PID0",
            "product_name": "OB-4586C54",
            "product_id": "PRDID0",
            "job_name": "\u88fd\u7a0b1-B",
            "qty": 20,
            "job_sequence": 1,
            "est_time": 60,
            "pre_product": null,
            "mother": {},
            "jlb_id": 10,
            "detail": null,
            "translated_detail": [],
            "process_name": "\u7ad9\u9ede\u4e00",
            "primary_resource": {
                "vendor": [
                    "RCID12"
                ]
            },
            "secondary_resource": {},
            "sourcing": "out-sourcing",
            "skill": 9,
            "plan_start_time": "2021-05-04 07:00",
            "plan_end_time": "2021-05-04 08:00",
            "resource": {
                "RCID12": "vendorB"
            }
        },
        "JID1": {
            "project_name": "MA-2020120076",
            "project_id": "PID0",
            "product_name": "OB-4586C54",
            "product_id": "PRDID0",
            "job_name": "\u88fd\u7a0b2",
            "qty": 20,
            "job_sequence": 2,
            "est_time": 120,
            "pre_product": null,
            "mother": {},
            "jlb_id": 11,
            "detail": null,
            "translated_detail": [],
            "process_name": "\u7ad9\u9ede\u4e00",
            "primary_resource": {
                "machine": [
                    "RCID3"
                ]
            },
            "secondary_resource": {},
            "sourcing": "in-house",
            "skill": 9,
            "plan_start_time": "2021-05-04 10:00",
            "plan_end_time": "2021-05-05 00:00",
            "resource": {
                "RCID3": "M001"
            }
        },
        "JID2": {
            "project_name": "MA-2020120076",
            "project_id": "PID0",
            "product_name": "OB-4586C54",
            "product_id": "PRDID0",
            "job_name": "\u88fd\u7a0b3",
            "qty": 20,
            "job_sequence": 3,
            "est_time": 180,
            "pre_product": null,
            "mother": {},
            "jlb_id": 12,
            "detail": null,
            "translated_detail": [],
            "process_name": "\u7ad9\u9ede\u4e00",
            "primary_resource": {
                "operator": [
                    "RCID0",
                    "RCID1"
                ]
            },
            "secondary_resource": {
                "machine": [
                    "RCID4"
                ]
            },
            "sourcing": "in-house",
            "skill": 9,
            "plan_start_time": "2021-05-05 00:00",
            "plan_end_time": "2021-05-05 18:00",
            "resource": {
                "RCID0": "H001",
                "RCID4": "M002"
            }
        },
        "JID3": {
            "project_name": "MA-2020120076",
            "project_id": "PID0",
            "product_name": "OB-4586C54",
            "product_id": "PRDID0",
            "job_name": "\u88fd\u7a0b4",
            "qty": 20,
            "job_sequence": 4,
            "est_time": 120,
            "pre_product": null,
            "mother": {},
            "jlb_id": 13,
            "detail": null,
            "translated_detail": [],
            "process_name": "\u7ad9\u9ede\u4e8c",
            "primary_resource": {
                "machine": [
                    "RCID5"
                ]
            },
            "secondary_resource": {},
            "sourcing": "in-house",
            "skill": 9,
            "plan_start_time": "2021-05-06 00:00",
            "plan_end_time": "2021-05-06 06:00",
            "resource": {
                "RCID5": "M003"
            }
        },
        "JID4": {
            "project_name": "MA-2020120076",
            "project_id": "PID0",
            "product_name": "OB-4586C54",
            "product_id": "PRDID0",
            "job_name": "\u88fd\u7a0b5",
            "qty": 20,
            "job_sequence": 4,
            "est_time": 90,
            "pre_product": null,
            "mother": {},
            "jlb_id": 14,
            "detail": null,
            "translated_detail": [],
            "process_name": "\u7ad9\u9ede\u4e8c",
            "primary_resource": {
                "machine": [
                    "RCID6"
                ]
            },
            "secondary_resource": {},
            "sourcing": "in-house",
            "skill": 9,
            "plan_start_time": "2021-05-06 00:00",
            "plan_end_time": "2021-05-06 01:30",
            "resource": {
                "RCID6": "M004"
            }
        },
        "JID5": {
            "project_name": "MA-2020120076",
            "project_id": "PID0",
            "product_name": "OB-4586C54",
            "product_id": "PRDID0",
            "job_name": "\u88fd\u7a0b6",
            "qty": 20,
            "job_sequence": 4,
            "est_time": 120,
            "pre_product": null,
            "mother": {},
            "jlb_id": 15,
            "detail": null,
            "translated_detail": [],
            "process_name": "\u7ad9\u9ede\u4e8c",
            "primary_resource": {
                "machine": [
                    "RCID7"
                ]
            },
            "secondary_resource": {},
            "sourcing": "in-house",
            "skill": 9,
            "plan_start_time": "2021-05-05 18:00",
            "plan_end_time": "2021-05-05 20:00",
            "resource": {
                "RCID7": "M005"
            }
        },
        "JID6": {
            "project_name": "MA-2020120076",
            "project_id": "PID0",
            "product_name": "OB-4586C54",
            "product_id": "PRDID0",
            "job_name": "\u88fd\u7a0b7",
            "qty": 20,
            "job_sequence": 5,
            "est_time": 240,
            "pre_product": null,
            "mother": {},
            "jlb_id": 16,
            "detail": null,
            "translated_detail": [],
            "process_name": "\u7ad9\u9ede\u4e09",
            "primary_resource": {
                "vendor": [
                    "RCID11"
                ]
            },
            "secondary_resource": {},
            "sourcing": "out-sourcing",
            "skill": 9,
            "plan_start_time": "2021-05-07 00:00",
            "plan_end_time": "2021-05-07 05:00",
            "resource": {
                "RCID11": "vendor2"
            }
        },
        "JID10": {
            "project_name": "MA-2020120077",
            "project_id": "PID1",
            "product_name": "OB-4586C55",
            "product_id": "PRDID1",
            "job_name": "\u88fd\u7a0b3",
            "qty": 20,
            "job_sequence": 3,
            "est_time": 180,
            "pre_product": null,
            "mother": {},
            "jlb_id": 12,
            "detail": null,
            "translated_detail": [],
            "process_name": "\u7ad9\u9ede\u4e00",
            "primary_resource": {
                "operator": [
                    "RCID0",
                    "RCID1"
                ]
            },
            "secondary_resource": {
                "machine": [
                    "RCID4"
                ]
            },
            "sourcing": "in-house",
            "skill": 9,
            "plan_start_time": "2021-05-04 10:00",
            "plan_end_time": "2021-05-04 14:00",
            "resource": {
                "RCID0": "H001",
                "RCID4": "M002"
            }
        },
        "JID11": {
            "project_name": "MA-2020120077",
            "project_id": "PID1",
            "product_name": "OB-4586C55",
            "product_id": "PRDID1",
            "job_name": "\u88fd\u7a0b4",
            "qty": 20,
            "job_sequence": 4,
            "est_time": 120,
            "pre_product": null,
            "mother": {},
            "jlb_id": 13,
            "detail": null,
            "translated_detail": [],
            "process_name": "\u7ad9\u9ede\u4e8c",
            "primary_resource": {
                "machine": [
                    "RCID5"
                ]
            },
            "secondary_resource": {},
            "sourcing": "in-house",
            "skill": 9,
            "plan_start_time": "2021-05-04 14:00",
            "plan_end_time": "2021-05-04 16:00",
            "resource": {
                "RCID5": "M003"
            }
        },
        "JID12": {
            "project_name": "MA-2020120077",
            "project_id": "PID1",
            "product_name": "OB-4586C55",
            "product_id": "PRDID1",
            "job_name": "\u88fd\u7a0b5",
            "qty": 20,
            "job_sequence": 5,
            "est_time": 90,
            "pre_product": null,
            "mother": {},
            "jlb_id": 14,
            "detail": null,
            "translated_detail": [],
            "process_name": "\u7ad9\u9ede\u4e8c",
            "primary_resource": {
                "machine": [
                    "RCID6"
                ]
            },
            "secondary_resource": {},
            "sourcing": "in-house",
            "skill": 9,
            "plan_start_time": "2021-05-05 07:00",
            "plan_end_time": "2021-05-05 08:30",
            "resource": {
                "RCID6": "M004"
            }
        },
        "JID13": {
            "project_name": "MA-2020120076",
            "project_id": "PID0",
            "product_name": "OB-4586C56",
            "product_id": "PRDID2",
            "job_name": "\u88fd\u7a0b1-B",
            "qty": 20,
            "job_sequence": 1,
            "est_time": 60,
            "pre_product": null,
            "mother": {},
            "jlb_id": 10,
            "detail": null,
            "translated_detail": [],
            "process_name": "\u7ad9\u9ede\u4e00",
            "primary_resource": {
                "vendor": [
                    "RCID12"
                ]
            },
            "secondary_resource": {},
            "sourcing": "out-sourcing",
            "skill": 9,
            "plan_start_time": "2021-05-04 08:00",
            "plan_end_time": "2021-05-04 09:00",
            "resource": {
                "RCID12": "vendorB"
            }
        },
        "JID14": {
            "project_name": "MA-2020120076",
            "project_id": "PID0",
            "product_name": "OB-4586C56",
            "product_id": "PRDID2",
            "job_name": "\u88fd\u7a0b2",
            "qty": 20,
            "job_sequence": 2,
            "est_time": 120,
            "pre_product": null,
            "mother": {},
            "jlb_id": 11,
            "detail": null,
            "translated_detail": [],
            "process_name": "\u7ad9\u9ede\u4e00",
            "primary_resource": {
                "machine": [
                    "RCID3"
                ]
            },
            "secondary_resource": {},
            "sourcing": "in-house",
            "skill": 9,
            "plan_start_time": "2021-05-04 13:00",
            "plan_end_time": "2021-05-04 15:00",
            "resource": {
                "RCID3": "M001"
            }
        },
        "JID15": {
            "project_name": "MA-2020120076",
            "project_id": "PID0",
            "product_name": "OB-4586C56",
            "product_id": "PRDID2",
            "job_name": "\u88fd\u7a0b3",
            "qty": 20,
            "job_sequence": 3,
            "est_time": 180,
            "pre_product": null,
            "mother": {},
            "jlb_id": 12,
            "detail": null,
            "translated_detail": [],
            "process_name": "\u7ad9\u9ede\u4e00",
            "primary_resource": {
                "operator": [
                    "RCID0",
                    "RCID1"
                ]
            },
            "secondary_resource": {
                "machine": [
                    "RCID4"
                ]
            },
            "sourcing": "in-house",
            "skill": 9,
            "plan_start_time": "2021-05-05 08:00",
            "plan_end_time": "2021-05-05 11:00",
            "resource": {
                "RCID0": "H001",
                "RCID4": "M002"
            }
        },
        "JID16": {
            "project_name": "MA-2020120076",
            "project_id": "PID0",
            "product_name": "OB-4586C56",
            "product_id": "PRDID2",
            "job_name": "\u88fd\u7a0b4",
            "qty": 20,
            "job_sequence": 4,
            "est_time": 120,
            "pre_product": null,
            "mother": {},
            "jlb_id": 13,
            "detail": null,
            "translated_detail": [],
            "process_name": "\u7ad9\u9ede\u4e8c",
            "primary_resource": {
                "machine": [
                    "RCID5"
                ]
            },
            "secondary_resource": {},
            "sourcing": "in-house",
            "skill": 9,
            "plan_start_time": "2021-05-05 11:00",
            "plan_end_time": "2021-05-05 14:00",
            "resource": {
                "RCID5": "M003"
            }
        },
        "JID17": {
            "project_name": "MA-2020120076",
            "project_id": "PID0",
            "product_name": "OB-4586C56",
            "product_id": "PRDID2",
            "job_name": "\u88fd\u7a0b5",
            "qty": 20,
            "job_sequence": 4,
            "est_time": 90,
            "pre_product": null,
            "mother": {},
            "jlb_id": 14,
            "detail": null,
            "translated_detail": [],
            "process_name": "\u7ad9\u9ede\u4e8c",
            "primary_resource": {
                "machine": [
                    "RCID6"
                ]
            },
            "secondary_resource": {},
            "sourcing": "in-house",
            "skill": 9,
            "plan_start_time": "2021-05-05 11:00",
            "plan_end_time": "2021-05-05 13:30",
            "resource": {
                "RCID6": "M004"
            }
        },
        "JID18": {
            "project_name": "MA-2020120076",
            "project_id": "PID0",
            "product_name": "OB-4586C56",
            "product_id": "PRDID2",
            "job_name": "\u88fd\u7a0b6",
            "qty": 20,
            "job_sequence": 4,
            "est_time": 120,
            "pre_product": null,
            "mother": {},
            "jlb_id": 15,
            "detail": null,
            "translated_detail": [],
            "process_name": "\u7ad9\u9ede\u4e8c",
            "primary_resource": {
                "machine": [
                    "RCID7"
                ]
            },
            "secondary_resource": {},
            "sourcing": "in-house",
            "skill": 9,
            "plan_start_time": "2021-05-05 11:00",
            "plan_end_time": "2021-05-05 14:00",
            "resource": {
                "RCID7": "M005"
            }
        },
        "JID19": {
            "project_name": "MA-2020120076",
            "project_id": "PID0",
            "product_name": "OB-4586C56",
            "product_id": "PRDID2",
            "job_name": "\u88fd\u7a0b7",
            "qty": 20,
            "job_sequence": 5,
            "est_time": 240,
            "pre_product": null,
            "mother": {},
            "jlb_id": 16,
            "detail": null,
            "translated_detail": [],
            "process_name": "\u7ad9\u9ede\u4e09",
            "primary_resource": {
                "vendor": [
                    "RCID11"
                ]
            },
            "secondary_resource": {},
            "sourcing": "out-sourcing",
            "skill": 9,
            "plan_start_time": "2021-05-05 15:00",
            "plan_end_time": "2021-05-06 10:00",
            "resource": {
                "RCID11": "vendor2"
            }
        },
        "JID20": {
            "project_name": "MA-2020120076",
            "project_id": "PID0",
            "product_name": "OB-4586C56",
            "product_id": "PRDID2",
            "job_name": "\u88fd\u7a0b8",
            "qty": 20,
            "job_sequence": 6,
            "est_time": 300,
            "pre_product": null,
            "mother": {},
            "jlb_id": 17,
            "detail": null,
            "translated_detail": [],
            "process_name": "\u7ad9\u9ede\u4e09",
            "primary_resource": {
                "operator": [
                    "RCID2"
                ]
            },
            "secondary_resource": {
                "machine": [
                    "RCID8",
                    "RCID9"
                ]
            },
            "sourcing": "in-house",
            "skill": 9,
            "plan_start_time": "2021-05-06 11:00",
            "plan_end_time": "2021-05-07 08:00",
            "resource": {
                "RCID2": "H003",
                "RCID9": "M007"
            }
        }
    },
    "resource_db": {
        "RCID0": {
            "working_day": "WDID0",
            "working_hours": "WHID0",
            "in_between": true,
            "allow_overlapped": false,
            "operator_skill": 9,
            "resource_name": "H001",
            "capacity": 1,
            "resource_type": "operator",
            "working_type": null,
            "job_name": [
                "\u88fd\u7a0b3"
            ],
            "virtual_resource": false
        },
        "RCID1": {
            "working_day": "WDID0",
            "working_hours": "WHID0",
            "in_between": true,
            "allow_overlapped": false,
            "operator_skill": 9,
            "resource_name": "H002",
            "capacity": 1,
            "resource_type": "operator",
            "working_type": null,
            "job_name": [
                "\u88fd\u7a0b3"
            ],
            "virtual_resource": false
        },
        "RCID2": {
            "working_day": "WDID0",
            "working_hours": "WHID0",
            "in_between": true,
            "allow_overlapped": false,
            "operator_skill": 9,
            "resource_name": "H003",
            "capacity": 1,
            "resource_type": "operator",
            "working_type": null,
            "job_name": [
                "\u88fd\u7a0b8"
            ],
            "virtual_resource": false
        },
        "RCID3": {
            "working_day": "WDID0",
            "working_hours": "WHID0",
            "in_between": true,
            "allow_overlapped": false,
            "operator_skill": 9,
            "resource_name": "M001",
            "capacity": 1,
            "resource_type": "machine",
            "working_type": null,
            "job_name": [
                "\u88fd\u7a0b2"
            ],
            "virtual_resource": false
        },
        "RCID4": {
            "working_day": "WDID0",
            "working_hours": "WHID0",
            "in_between": true,
            "allow_overlapped": false,
            "operator_skill": 9,
            "resource_name": "M002",
            "capacity": 1,
            "resource_type": "machine",
            "working_type": null,
            "job_name": [
                "\u88fd\u7a0b3"
            ],
            "virtual_resource": false
        },
        "RCID5": {
            "working_day": "WDID0",
            "working_hours": "WHID0",
            "in_between": true,
            "allow_overlapped": false,
            "operator_skill": 9,
            "resource_name": "M003",
            "capacity": 1,
            "resource_type": "machine",
            "working_type": null,
            "job_name": [
                "\u88fd\u7a0b4"
            ],
            "virtual_resource": false
        },
        "RCID6": {
            "working_day": "WDID0",
            "working_hours": "WHID0",
            "in_between": true,
            "allow_overlapped": false,
            "operator_skill": 9,
            "resource_name": "M004",
            "capacity": 1,
            "resource_type": "machine",
            "working_type": null,
            "job_name": [
                "\u88fd\u7a0b5"
            ],
            "virtual_resource": false
        },
        "RCID7": {
            "working_day": "WDID0",
            "working_hours": "WHID0",
            "in_between": true,
            "allow_overlapped": false,
            "operator_skill": 9,
            "resource_name": "M005",
            "capacity": 1,
            "resource_type": "machine",
            "working_type": null,
            "job_name": [
                "\u88fd\u7a0b6"
            ],
            "virtual_resource": false
        },
        "RCID8": {
            "working_day": "WDID0",
            "working_hours": "WHID0",
            "in_between": true,
            "allow_overlapped": false,
            "operator_skill": 9,
            "resource_name": "M006",
            "capacity": 1,
            "resource_type": "machine",
            "working_type": null,
            "job_name": [
                "\u88fd\u7a0b8"
            ],
            "virtual_resource": false
        },
        "RCID9": {
            "working_day": "WDID0",
            "working_hours": "WHID0",
            "in_between": true,
            "allow_overlapped": false,
            "operator_skill": 9,
            "resource_name": "M007",
            "capacity": 1,
            "resource_type": "machine",
            "working_type": null,
            "job_name": [
                "\u88fd\u7a0b8"
            ],
            "virtual_resource": false
        },
        "RCID10": {
            "working_day": "WDID0",
            "working_hours": "WHID0",
            "in_between": true,
            "allow_overlapped": true,
            "operator_skill": 9,
            "resource_name": "vendor1",
            "capacity": 1,
            "resource_type": "vendor",
            "working_type": null,
            "job_name": [
                "\u88fd\u7a0b1"
            ],
            "virtual_resource": false
        },
        "RCID11": {
            "working_day": "WDID0",
            "working_hours": "WHID0",
            "in_between": true,
            "allow_overlapped": true,
            "operator_skill": 9,
            "resource_name": "vendor2",
            "capacity": 1,
            "resource_type": "vendor",
            "working_type": null,
            "job_name": [
                "\u88fd\u7a0b7"
            ],
            "virtual_resource": false
        },
        "RCID12": {
            "working_day": "WDID0",
            "working_hours": "WHID0",
            "in_between": true,
            "allow_overlapped": true,
            "operator_skill": 9,
            "resource_name": "vendorB",
            "capacity": 1,
            "resource_type": "vendor",
            "working_type": null,
            "job_name": [
                "\u88fd\u7a0b1-B"
            ],
            "virtual_resource": false
        },
        "RCID13": {
            "working_day": "WDID0",
            "working_hours": "WHID0",
            "in_between": true,
            "allow_overlapped": false,
            "operator_skill": 9,
            "resource_name": "\u88fd\u7a0b1-\u672a\u8a3b\u518a\u6a5f\u53f0",
            "capacity": 1,
            "resource_type": "virtual",
            "working_type": null,
            "job_name": [
                "\u88fd\u7a0b1-\u672a\u8a3b\u518a\u5de5\u4f5c"
            ],
            "virtual_resource": true
        }
    },
    "product_db": {
        "PRDID0": {
            "_process": [],
            "project_id": "PID0",
            "product_name": "OB-4586C54",
            "mother": {},
            "_jobID_list": {
                "1": [
                    "JID0"
                ],
                "2": [
                    "JID1"
                ],
                "3": [
                    "JID2"
                ],
                "4": [
                    "JID3",
                    "JID4",
                    "JID5"
                ],
                "5": [
                    "JID6"
                ],
                "6": [
                    "JID7"
                ]
            }
        },
        "PRDID1": {
            "_process": [],
            "project_id": "PID1",
            "product_name": "OB-4586C55",
            "mother": {},
            "_jobID_list": {
                "1": [
                    "JID8"
                ],
                "2": [
                    "JID9"
                ],
                "3": [
                    "JID10"
                ],
                "4": [
                    "JID11"
                ],
                "5": [
                    "JID12"
                ]
            }
        },
        "PRDID2": {
            "_process": [],
            "project_id": "PID0",
            "product_name": "OB-4586C56",
            "mother": {},
            "_jobID_list": {
                "1": [
                    "JID13"
                ],
                "2": [
                    "JID14"
                ],
                "3": [
                    "JID15"
                ],
                "4": [
                    "JID16",
                    "JID17",
                    "JID18"
                ],
                "5": [
                    "JID19"
                ],
                "6": [
                    "JID20"
                ]
            }
        }
    },
    "workingdays_db": {
        "WDID0": {
            "calendar_name": "Factory_calendar",
            "working_days": [
                "2021-01-01",
                "2021-01-02",
                "2021-01-03",
                "2021-01-04",
                "2021-01-05",
                "2021-01-06",
                "2021-01-07",
                "2021-01-08",
                "2021-01-09",
                "2021-01-10",
                "2021-01-11",
                "2021-01-12",
                "2021-01-13",
                "2021-01-14",
                "2021-01-15",
                "2021-01-16",
                "2021-01-17",
                "2021-01-18",
                "2021-01-19",
                "2021-01-20",
                "2021-01-21",
                "2021-01-22",
                "2021-01-23",
                "2021-01-24",
                "2021-01-25",
                "2021-01-26",
                "2021-01-27",
                "2021-01-28",
                "2021-01-29",
                "2021-01-30",
                "2021-01-31",
                "2021-02-01",
                "2021-02-02",
                "2021-02-03",
                "2021-02-04",
                "2021-02-05",
                "2021-02-06",
                "2021-02-07",
                "2021-02-08",
                "2021-02-09",
                "2021-02-10",
                "2021-02-11",
                "2021-02-12",
                "2021-02-13",
                "2021-02-14",
                "2021-02-15",
                "2021-02-16",
                "2021-02-17",
                "2021-02-18",
                "2021-02-19",
                "2021-02-20",
                "2021-02-21",
                "2021-02-22",
                "2021-02-23",
                "2021-02-24",
                "2021-02-25",
                "2021-02-26",
                "2021-02-27",
                "2021-02-28",
                "2021-03-01",
                "2021-03-02",
                "2021-03-03",
                "2021-03-04",
                "2021-03-05",
                "2021-03-06",
                "2021-03-07",
                "2021-03-08",
                "2021-03-09",
                "2021-03-10",
                "2021-03-11",
                "2021-03-12",
                "2021-03-13",
                "2021-03-14",
                "2021-03-15",
                "2021-03-16",
                "2021-03-17",
                "2021-03-18",
                "2021-03-19",
                "2021-03-20",
                "2021-03-21",
                "2021-03-22",
                "2021-03-23",
                "2021-03-24",
                "2021-03-25",
                "2021-03-26",
                "2021-03-27",
                "2021-03-28",
                "2021-03-29",
                "2021-03-30",
                "2021-03-31",
                "2021-04-01",
                "2021-04-02",
                "2021-04-03",
                "2021-04-04",
                "2021-04-05",
                "2021-04-06",
                "2021-04-07",
                "2021-04-08",
                "2021-04-09",
                "2021-04-10",
                "2021-04-11",
                "2021-04-12",
                "2021-04-13",
                "2021-04-14",
                "2021-04-15",
                "2021-04-16",
                "2021-04-17",
                "2021-04-18",
                "2021-04-19",
                "2021-04-20",
                "2021-04-21",
                "2021-04-22",
                "2021-04-23",
                "2021-04-24",
                "2021-04-25",
                "2021-04-26",
                "2021-04-27",
                "2021-04-28",
                "2021-04-29",
                "2021-04-30",
                "2021-05-01",
                "2021-05-02",
                "2021-05-03",
                "2021-05-04",
                "2021-05-05",
                "2021-05-06",
                "2021-05-07",
                "2021-05-08",
                "2021-05-09",
                "2021-05-10",
                "2021-05-11",
                "2021-05-12",
                "2021-05-13",
                "2021-05-14",
                "2021-05-15",
                "2021-05-16",
                "2021-05-17",
                "2021-05-18",
                "2021-05-19",
                "2021-05-20",
                "2021-05-21",
                "2021-05-22",
                "2021-05-23",
                "2021-05-24",
                "2021-05-25",
                "2021-05-26",
                "2021-05-27",
                "2021-05-28",
                "2021-05-29",
                "2021-05-30",
                "2021-05-31",
                "2021-06-01",
                "2021-06-02",
                "2021-06-03",
                "2021-06-04",
                "2021-06-05",
                "2021-06-06",
                "2021-06-07",
                "2021-06-08",
                "2021-06-09",
                "2021-06-10",
                "2021-06-11",
                "2021-06-12",
                "2021-06-13",
                "2021-06-14",
                "2021-06-15",
                "2021-06-16",
                "2021-06-17",
                "2021-06-18",
                "2021-06-19",
                "2021-06-20",
                "2021-06-21",
                "2021-06-22",
                "2021-06-23",
                "2021-06-24",
                "2021-06-25",
                "2021-06-26",
                "2021-06-27",
                "2021-06-28",
                "2021-06-29",
                "2021-06-30"
            ]
        }
    },
    "workinghours_db": {
        "WHID0": {
            "working_hours": [
                "07:00-16:00"
            ],
            "break_time": [
                "12:00-13:00"
            ],
            "hours_name": "\u65e9\u73ed"
        },
        "WHID1": {
            "working_hours": [
                "16:00-23:59"
            ],
            "break_time": [
                "12:00-13:00"
            ],
            "hours_name": "\u4e2d\u73ed"
        },
        "WHID2": {
            "working_hours": [
                "08:00-17:00"
            ],
            "break_time": [
                "12:00-13:00",
                "15:00-16:00"
            ],
            "hours_name": "\u6b63\u5e38\u73ed"
        },
        "WHID3": {
            "working_hours": [
                "00:00-23:59"
            ],
            "break_time": [
                "12:00-13:00"
            ],
            "hours_name": "\u5168\u5929"
        }
    },
    "job_lib": {
        "JLB0": {
            "secondary_resource": {},
            "process_name": "\u7ad9\u9ede\u4e00",
            "jlb_name": "\u88fd\u7a0b1-B",
            "job_name": "\u88fd\u7a0b1-B",
            "id": 10,
            "jlb_rule": null,
            "skill": 9,
            "_material": null,
            "primary_resource": {
                "vendor": [
                    "RCID12"
                ]
            },
            "route_seq": null,
            "index": "JLB0",
            "jlb_parameter": null,
            "sourcing": "out-sourcing",
            "full_name": "\u7ad9\u9ede\u4e00-\u88fd\u7a0b1-B-\u88fd\u7a0b1-B-out-sourcing"
        },
        "JLB1": {
            "secondary_resource": {},
            "process_name": "\u7ad9\u9ede\u4e00",
            "jlb_name": "\u88fd\u7a0b2",
            "job_name": "\u88fd\u7a0b2",
            "id": 11,
            "jlb_rule": "EQUAL",
            "skill": 9,
            "_material": null,
            "primary_resource": {
                "machine": [
                    "RCID3"
                ]
            },
            "route_seq": null,
            "index": "JLB1",
            "jlb_parameter": "10",
            "sourcing": "in-house",
            "full_name": "\u7ad9\u9ede\u4e00-\u88fd\u7a0b2-\u88fd\u7a0b2-in-house"
        },
        "JLB2": {
            "secondary_resource": {
                "machine": [
                    "RCID4"
                ]
            },
            "process_name": "\u7ad9\u9ede\u4e00",
            "jlb_name": "\u88fd\u7a0b3",
            "job_name": "\u88fd\u7a0b3",
            "id": 12,
            "jlb_rule": null,
            "skill": 9,
            "_material": null,
            "primary_resource": {
                "operator": [
                    "RCID0",
                    "RCID1"
                ]
            },
            "route_seq": null,
            "index": "JLB2",
            "jlb_parameter": null,
            "sourcing": "in-house",
            "full_name": "\u7ad9\u9ede\u4e00-\u88fd\u7a0b3-\u88fd\u7a0b3-in-house"
        },
        "JLB3": {
            "secondary_resource": {},
            "process_name": "\u7ad9\u9ede\u4e8c",
            "jlb_name": "\u88fd\u7a0b4",
            "job_name": "\u88fd\u7a0b4",
            "id": 13,
            "jlb_rule": "ASC",
            "skill": 9,
            "_material": null,
            "primary_resource": {
                "machine": [
                    "RCID5"
                ]
            },
            "route_seq": null,
            "index": "JLB3",
            "jlb_parameter": "10",
            "sourcing": "in-house",
            "full_name": "\u7ad9\u9ede\u4e8c-\u88fd\u7a0b4-\u88fd\u7a0b4-in-house"
        },
        "JLB4": {
            "secondary_resource": {},
            "process_name": "\u7ad9\u9ede\u4e8c",
            "jlb_name": "\u88fd\u7a0b5",
            "job_name": "\u88fd\u7a0b5",
            "id": 14,
            "jlb_rule": "DESC",
            "skill": 9,
            "_material": null,
            "primary_resource": {
                "machine": [
                    "RCID6"
                ]
            },
            "route_seq": null,
            "index": "JLB4",
            "jlb_parameter": "8",
            "sourcing": "in-house",
            "full_name": "\u7ad9\u9ede\u4e8c-\u88fd\u7a0b5-\u88fd\u7a0b5-in-house"
        },
        "JLB5": {
            "secondary_resource": {},
            "process_name": "\u7ad9\u9ede\u4e8c",
            "jlb_name": "\u88fd\u7a0b6",
            "job_name": "\u88fd\u7a0b6",
            "id": 15,
            "jlb_rule": null,
            "skill": 9,
            "_material": null,
            "primary_resource": {
                "machine": [
                    "RCID7"
                ]
            },
            "route_seq": null,
            "index": "JLB5",
            "jlb_parameter": null,
            "sourcing": "in-house",
            "full_name": "\u7ad9\u9ede\u4e8c-\u88fd\u7a0b6-\u88fd\u7a0b6-in-house"
        },
        "JLB6": {
            "secondary_resource": {},
            "process_name": "\u7ad9\u9ede\u4e09",
            "jlb_name": "\u88fd\u7a0b7",
            "job_name": "\u88fd\u7a0b7",
            "id": 16,
            "jlb_rule": null,
            "skill": 9,
            "_material": null,
            "primary_resource": {
                "vendor": [
                    "RCID11"
                ]
            },
            "route_seq": null,
            "index": "JLB6",
            "jlb_parameter": null,
            "sourcing": "out-sourcing",
            "full_name": "\u7ad9\u9ede\u4e09-\u88fd\u7a0b7-\u88fd\u7a0b7-out-sourcing"
        },
        "JLB7": {
            "secondary_resource": {
                "machine": [
                    "RCID8",
                    "RCID9"
                ]
            },
            "process_name": "\u7ad9\u9ede\u4e09",
            "jlb_name": "\u88fd\u7a0b8",
            "job_name": "\u88fd\u7a0b8",
            "id": 17,
            "jlb_rule": null,
            "skill": 9,
            "_material": null,
            "primary_resource": {
                "operator": [
                    "RCID2"
                ]
            },
            "route_seq": null,
            "index": "JLB7",
            "jlb_parameter": null,
            "sourcing": "in-house",
            "full_name": "\u7ad9\u9ede\u4e09-\u88fd\u7a0b8-\u88fd\u7a0b8-in-house"
        },
        "JLB8": {
            "secondary_resource": {},
            "process_name": "\u7ad9\u9ede\u4e00",
            "jlb_name": "\u88fd\u7a0b1",
            "job_name": "\u88fd\u7a0b1",
            "id": 18,
            "jlb_rule": null,
            "skill": 9,
            "_material": null,
            "primary_resource": {
                "virtual": [
                    "RCID13"
                ]
            },
            "route_seq": null,
            "index": "JLB8",
            "jlb_parameter": null,
            "sourcing": "in-house",
            "full_name": "\u7ad9\u9ede\u4e00-\u88fd\u7a0b1-\u88fd\u7a0b1-in-house"
        }
    },
    "schedule": {
        "time": "2021-05-03 17:18",
        "res": {
            "RCID0": [
                [
                    "JID10",
                    "2021-05-04 10:00",
                    "2021-05-04 14:00",
                    1.0
                ],
                [
                    "JID2",
                    "2021-05-04 14:00",
                    "2021-05-05 08:00",
                    1.0
                ],
                [
                    "JID15",
                    "2021-05-05 08:00",
                    "2021-05-05 11:00",
                    1.0
                ]
            ],
            "RCID1": [],
            "RCID2": [
                [
                    "JID7",
                    "2021-05-05 15:00",
                    "2021-05-06 11:00",
                    1.0
                ],
                [
                    "JID20",
                    "2021-05-06 11:00",
                    "2021-05-07 08:00",
                    1.0
                ]
            ],
            "RCID3": [
                [
                    "JID9",
                    "2021-05-04 08:00",
                    "2021-05-04 10:00",
                    1.0
                ],
                [
                    "JID1",
                    "2021-05-04 10:00",
                    "2021-05-04 12:00",
                    1.0
                ],
                [
                    "JID14",
                    "2021-05-04 13:00",
                    "2021-05-04 15:00",
                    1.0
                ]
            ],
            "RCID4": [
                [
                    "JID10",
                    "2021-05-04 10:00",
                    "2021-05-04 14:00",
                    0.75
                ],
                [
                    "JID2",
                    "2021-05-04 14:00",
                    "2021-05-05 08:00",
                    0.17
                ],
                [
                    "JID15",
                    "2021-05-05 08:00",
                    "2021-05-05 11:00",
                    1.0
                ]
            ],
            "RCID5": [
                [
                    "JID11",
                    "2021-05-04 14:00",
                    "2021-05-04 16:00",
                    1.0
                ],
                [
                    "JID3",
                    "2021-05-05 08:00",
                    "2021-05-05 10:00",
                    1.0
                ],
                [
                    "JID16",
                    "2021-05-05 11:00",
                    "2021-05-05 14:00",
                    1.0
                ]
            ],
            "RCID6": [
                [
                    "JID12",
                    "2021-05-05 07:00",
                    "2021-05-05 08:30",
                    1.0
                ],
                [
                    "JID4",
                    "2021-05-05 08:30",
                    "2021-05-05 10:00",
                    1.0
                ],
                [
                    "JID17",
                    "2021-05-05 11:00",
                    "2021-05-05 13:30",
                    1.0
                ]
            ],
            "RCID7": [
                [
                    "JID5",
                    "2021-05-05 08:00",
                    "2021-05-05 10:00",
                    1.0
                ],
                [
                    "JID18",
                    "2021-05-05 11:00",
                    "2021-05-05 14:00",
                    1.0
                ]
            ],
            "RCID8": [
                [
                    "JID7",
                    "2021-05-05 15:00",
                    "2021-05-06 11:00",
                    0.25
                ]
            ],
            "RCID9": [
                [
                    "JID20",
                    "2021-05-06 11:00",
                    "2021-05-07 08:00",
                    0.24
                ]
            ],
            "RCID10": [],
            "RCID11": [
                [
                    "JID6",
                    "2021-05-05 10:00",
                    "2021-05-05 15:00",
                    1.0
                ],
                [
                    "JID19",
                    "2021-05-05 15:00",
                    "2021-05-06 10:00",
                    1.0
                ]
            ],
            "RCID12": [
                [
                    "JID0",
                    "2021-05-04 07:00",
                    "2021-05-04 08:00",
                    1.0
                ],
                [
                    "JID13",
                    "2021-05-04 08:00",
                    "2021-05-04 09:00",
                    1.0
                ]
            ],
            "RCID13": [
                [
                    "JID8",
                    "2021-05-04 07:00",
                    "2021-05-04 08:00",
                    1.0
                ]
            ]
        }
    }
}